<svg width="448" height="531" viewBox="0 0 448 531" fill="none" xmlns="http://www.w3.org/2000/svg">
<g clip-path="url(#clip0_53_1132)">
<path d="M433.52 195.712H14.096C10.3588 195.708 6.77596 194.198 4.13338 191.512C1.4908 188.827 0.00431523 185.186 0 181.388V14.3242C0.00431523 10.5265 1.4908 6.88564 4.13338 4.20028C6.77596 1.51491 10.3588 0.00435458 14.096 -3.05176e-05H433.52C437.257 0.00435458 440.84 1.51491 443.483 4.20028C446.125 6.88564 447.612 10.5265 447.616 14.3242V181.388C447.612 185.186 446.125 188.827 443.483 191.512C440.84 194.198 437.257 195.708 433.52 195.712Z" fill="#F2F2F2"/>
<path d="M335.701 186.577H80.6729C61.6686 186.555 43.4488 178.874 30.0107 165.218C16.5726 151.562 9.01363 133.047 8.99219 113.735V81.9851C9.01361 62.673 16.5725 44.1581 30.0106 30.5023C43.4487 16.8465 61.6685 9.16506 80.6729 9.14316H366.945C385.95 9.16506 404.169 16.8465 417.608 30.5023C431.046 44.1581 438.605 62.673 438.626 81.9851C438.595 109.715 427.741 136.3 408.446 155.908C389.15 175.516 362.989 186.545 335.701 186.577Z" fill="white"/>
<path d="M269.914 56.9681H101.337C100.373 56.9681 99.4487 56.5789 98.7669 55.8861C98.0852 55.1933 97.7021 54.2536 97.7021 53.2739C97.7021 52.2941 98.0852 51.3545 98.7669 50.6616C99.4487 49.9688 100.373 49.5796 101.337 49.5796H269.914C270.878 49.5796 271.803 49.9688 272.485 50.6616C273.166 51.3545 273.549 52.2941 273.549 53.2739C273.549 54.2536 273.166 55.1933 272.485 55.8861C271.803 56.5789 270.878 56.9681 269.914 56.9681Z" fill="#FFE98A"/>
<path d="M355.251 96.383H101.337C100.373 96.383 99.4487 95.9938 98.7669 95.301C98.0852 94.6082 97.7021 93.6686 97.7021 92.6888C97.7021 91.709 98.0852 90.7694 98.7669 90.0766C99.4487 89.3838 100.373 88.9946 101.337 88.9946H355.251C356.215 88.9946 357.139 89.3838 357.821 90.0766C358.503 90.7694 358.886 91.709 358.886 92.6888C358.886 93.6686 358.503 94.6082 357.821 95.301C357.139 95.9938 356.215 96.383 355.251 96.383Z" fill="#FFE98A"/>
<path d="M355.251 135.798H101.337C100.373 135.798 99.4487 135.409 98.7669 134.716C98.0852 134.023 97.7021 133.083 97.7021 132.104C97.7021 131.124 98.0852 130.184 98.7669 129.492C99.4487 128.799 100.373 128.41 101.337 128.41H355.251C356.215 128.41 357.139 128.799 357.821 129.492C358.503 130.184 358.886 131.124 358.886 132.104C358.886 133.083 358.503 134.023 357.821 134.716C357.139 135.409 356.215 135.798 355.251 135.798Z" fill="#FFE98A"/>
<path d="M355.251 135.798H101.337C100.373 135.798 99.4487 135.409 98.7669 134.716C98.0852 134.023 97.7021 133.083 97.7021 132.104C97.7021 131.124 98.0852 130.184 98.7669 129.492C99.4487 128.799 100.373 128.41 101.337 128.41H355.251C356.215 128.41 357.139 128.799 357.821 129.492C358.503 130.184 358.886 131.124 358.886 132.104C358.886 133.083 358.503 134.023 357.821 134.716C357.139 135.409 356.215 135.798 355.251 135.798Z" fill="#FFE98A"/>
<path d="M252.125 100.907C252.166 102.02 252.446 103.11 252.945 104.101C253.445 105.092 254.153 105.959 255.018 106.642C255.884 107.325 256.886 107.807 257.955 108.053C259.023 108.3 260.132 108.306 261.203 108.07L275.067 131.182L280.967 118.458L266.897 98.4613C266.388 96.6594 265.246 95.1099 263.688 94.1064C262.13 93.1028 260.263 92.7151 258.442 93.0165C256.622 93.3179 254.973 94.2876 253.809 95.7419C252.644 97.1961 252.045 99.0338 252.125 100.907Z" fill="#FFB6B6"/>
<path d="M356.164 167.144L308.387 140.809L293.317 126.442C293.317 126.442 286.765 124.659 289.177 122.494C291.588 120.33 284.716 118.242 284.716 118.242L276.627 110.529L265.131 118.795L268.458 124.036C268.458 124.036 268.229 132.711 272.906 131.042C277.583 129.373 276.414 136.569 276.414 136.569L304.33 180.543L356.164 167.144Z" fill="#3F3D56"/>
<path d="M215.13 142.333C240.904 142.333 261.797 121.101 261.797 94.9099C261.797 68.719 240.904 47.4871 215.13 47.4871C189.357 47.4871 168.463 68.719 168.463 94.9099C168.463 121.101 189.357 142.333 215.13 142.333Z" fill="#6C63FF"/>
<path d="M356.312 512.562H346.609L341.991 474.529H356.312V512.562Z" fill="#FFB6B6"/>
<path d="M361.434 529.647H354.476L353.233 522.971L350.052 529.647H331.596C330.712 529.647 329.85 529.36 329.137 528.827C328.425 528.294 327.899 527.544 327.635 526.686C327.372 525.827 327.386 524.906 327.674 524.056C327.963 523.206 328.511 522.472 329.239 521.962L343.977 511.618V504.869L359.479 505.809L361.434 529.647Z" fill="#2F2E41"/>
<path d="M278.705 512.562H269.001L264.384 474.529H278.705V512.562Z" fill="#FFB6B6"/>
<path d="M283.827 529.647H276.868L275.626 522.971L272.445 529.647H253.989C253.104 529.647 252.243 529.36 251.53 528.827C250.817 528.294 250.291 527.544 250.028 526.686C249.765 525.827 249.778 524.906 250.067 524.056C250.355 523.206 250.903 522.472 251.631 521.962L266.37 511.618V504.869L281.872 505.809L283.827 529.647Z" fill="#2F2E41"/>
<path d="M346.016 224.921H297.041V281.581H346.016V224.921Z" fill="#FFB6B6"/>
<path d="M298.171 252.868L289.883 262.822L275.567 293.449L239.495 380.666L231.866 399.111L238.027 431.718C238.027 431.718 239.024 454.69 239.024 458.45C239.024 466.107 245.326 470.349 245.326 470.349L249.949 494.819L294.781 492.905C294.781 492.905 293.217 465.932 283.827 459.129C274.437 452.325 270.121 416.866 270.121 416.866L265.019 401.134L314.748 341.231L315.069 362.17L315.224 372.305C315.224 372.305 307.942 438.224 316.431 451.017C324.92 463.81 316.604 462.305 316.604 462.305L317.008 488.694L370.128 489.077L358.409 413.101C358.409 413.101 352.458 408.327 355.642 403.527C358.826 398.728 352.556 392.85 352.556 392.85L355.368 333.538C355.368 333.538 352.255 323.293 355.917 321.961C359.579 320.63 356.398 311.82 356.398 311.82L356.942 300.34L346.017 264.736L298.171 252.868Z" fill="#2F2E41"/>
<path d="M346.769 224.921L352.044 208.842L355.811 203.483L357.318 188.169C357.318 146.823 348.242 153.708 348.242 153.708L343.002 139.166L318.891 138.401L303.445 153.331L290.636 157.925L285.62 184.41L294.78 212.671L297.041 227.984C292.729 236.073 293.093 232.247 296.664 238.32L339.235 250.188C354.304 255.548 354.304 241.766 351.282 238.32C348.261 234.875 346.769 224.921 346.769 224.921Z" fill="#3F3D56"/>
<path d="M327.832 133.261C340.177 133.261 350.184 123.092 350.184 110.547C350.184 98.0029 340.177 87.8336 327.832 87.8336C315.488 87.8336 305.48 98.0029 305.48 110.547C305.48 123.092 315.488 133.261 327.832 133.261Z" fill="#FFB6B6"/>
<path d="M357.672 140.866C357.883 141.227 358.011 141.632 358.046 142.05C358.081 142.468 358.023 142.889 357.876 143.282C357.729 143.674 357.497 144.027 357.197 144.316C356.897 144.604 356.536 144.82 356.143 144.947C353.144 145.958 351.298 148.906 349.143 151.264C346.996 153.615 343.537 155.567 340.795 153.967C338.06 152.374 337.871 148.308 335.581 146.103C333.35 143.959 329.643 144.22 327.021 145.851L326.943 145.9C326.49 146.2 325.961 146.358 325.421 146.355C324.881 146.353 324.353 146.19 323.903 145.886C323.453 145.582 323.101 145.15 322.889 144.645C322.678 144.139 322.617 143.582 322.715 143.042C323.633 138.077 324.551 133.112 325.469 128.148C323.058 134.052 319.556 139.432 315.154 143.998C313.942 145.42 312.405 146.519 310.679 147.198C309.111 147.704 307.589 146.057 306.067 146.356C309.85 142.995 322.568 121.449 320.293 107.047C317.618 107.353 314.943 107.659 312.268 107.965C311.979 106.679 311.36 105.493 310.475 104.528C310.583 105.779 310.427 107.04 310.016 108.226C308.9 108.356 307.778 108.478 306.663 108.609C305.111 108.785 303.423 108.938 302.089 108.111C299.866 106.733 299.799 103.471 300.431 100.898C302.285 93.4176 307.906 87.1621 314.785 83.8851C321.664 80.6157 323.699 87.8972 330.947 85.5696C345.263 80.9756 356.233 88.8314 360.099 103.41C363.346 115.637 360.988 128.615 357.672 140.866Z" fill="#2F2E41"/>
<path d="M419.553 530.141H392.183L392.066 529.924C391.716 529.279 391.378 528.596 391.062 527.893C388.243 521.76 387.051 514.745 386 508.557L385.208 503.892C385.112 503.327 385.185 502.745 385.416 502.222C385.647 501.699 386.026 501.258 386.505 500.956C386.984 500.653 387.542 500.503 388.105 500.524C388.669 500.545 389.214 500.736 389.67 501.074C393.829 504.149 397.99 507.222 402.153 510.292C403.729 511.457 405.529 512.806 407.253 514.263C407.42 513.443 407.593 512.619 407.767 511.807C407.887 511.247 408.169 510.735 408.577 510.338C408.985 509.942 409.499 509.677 410.056 509.58C410.612 509.482 411.184 509.555 411.699 509.79C412.215 510.025 412.649 510.41 412.947 510.897L416.149 516.125C418.485 519.943 420.546 523.706 420.126 527.763C420.128 527.813 420.125 527.862 420.116 527.911C420.032 528.577 419.876 529.232 419.651 529.864L419.553 530.141Z" fill="#BDFF8A"/>
<path d="M447.023 530.742L186.944 531C186.684 530.999 186.436 530.893 186.253 530.706C186.07 530.519 185.967 530.266 185.967 530.002C185.967 529.738 186.07 529.485 186.253 529.298C186.436 529.111 186.684 529.006 186.944 529.004L447.023 528.747C447.283 528.748 447.531 528.854 447.714 529.041C447.897 529.228 448 529.481 448 529.745C448 530.008 447.897 530.261 447.714 530.448C447.531 530.635 447.283 530.741 447.023 530.742Z" fill="#BDFF8A"/>
<path d="M210.888 158.738L182.281 134.187C181.303 133.346 180.693 132.146 180.585 130.848C180.478 129.551 180.881 128.263 181.706 127.268L186.972 120.932C187.799 119.938 188.981 119.319 190.258 119.21C191.534 119.1 192.801 119.51 193.781 120.349L222.389 144.899C223.367 145.74 223.976 146.941 224.084 148.238C224.191 149.535 223.788 150.823 222.963 151.818L217.697 158.154C216.87 159.148 215.688 159.767 214.412 159.877C213.135 159.986 211.868 159.576 210.888 158.738Z" fill="#3F3D56"/>
<path d="M183.781 127.779C183.336 128.315 183.119 129.009 183.177 129.708C183.235 130.407 183.564 131.054 184.091 131.508L212.698 156.058C213.226 156.51 213.909 156.73 214.597 156.672C215.285 156.613 215.922 156.279 216.368 155.743L221.633 149.408C222.078 148.871 222.295 148.177 222.237 147.478C222.179 146.779 221.851 146.132 221.324 145.679L192.716 121.129C192.188 120.677 191.505 120.456 190.817 120.515C190.129 120.574 189.493 120.907 189.047 121.443L183.781 127.779Z" fill="white"/>
<path d="M200.577 137.322C200.477 137.464 200.347 137.579 200.196 137.66C200.045 137.742 199.878 137.786 199.707 137.79L195.212 137.895C195.068 137.898 194.924 137.872 194.789 137.819C194.655 137.766 194.532 137.687 194.427 137.586C194.323 137.484 194.239 137.363 194.181 137.229C194.122 137.094 194.091 136.95 194.087 136.803C194.084 136.656 194.109 136.51 194.161 136.373C194.213 136.237 194.292 136.111 194.391 136.005C194.491 135.899 194.611 135.814 194.743 135.755C194.875 135.695 195.017 135.663 195.162 135.66L198.102 135.591L195.206 127.826C195.104 127.549 195.113 127.242 195.233 126.972C195.353 126.703 195.574 126.492 195.846 126.387C196.118 126.282 196.42 126.292 196.686 126.413C196.952 126.534 197.159 126.757 197.263 127.034L200.71 136.276C200.773 136.443 200.795 136.623 200.774 136.801C200.754 136.979 200.692 137.149 200.594 137.297L200.577 137.322Z" fill="#6C63FF"/>
<path d="M201.153 139.274C202.237 139.436 203.273 139.837 204.188 140.45C205.103 141.062 205.875 141.872 206.449 142.82C207.023 143.769 207.385 144.834 207.51 145.94C207.635 147.046 207.52 148.167 207.173 149.223L228.275 165.741L215.186 170.318L197.155 153.93C195.447 153.22 194.056 151.898 193.243 150.215C192.431 148.532 192.255 146.604 192.748 144.797C193.24 142.991 194.368 141.431 195.917 140.413C197.467 139.395 199.33 138.989 201.153 139.274Z" fill="#FFB6B6"/>
<path d="M311.012 147.441L256.985 181.196C256.985 181.196 235.203 173.006 239.46 169.215C243.717 165.423 230.165 162.86 230.165 162.86L215.193 152.625L206.506 162.885C206.506 162.885 208.089 179.55 210.782 176.664C213.475 173.778 217.501 181.661 217.501 181.661C217.501 181.661 218.691 190.463 226.358 188.248C234.025 186.033 254.598 209.25 254.598 209.25L321.088 184.05L311.012 147.441Z" fill="#3F3D56"/>
<path d="M213.489 113.933C212.863 113.933 212.245 113.785 211.685 113.5C211.125 113.216 210.638 112.802 210.262 112.293L200.367 98.8859C200.049 98.4552 199.818 97.9651 199.687 97.4436C199.555 96.922 199.526 96.3793 199.601 95.8463C199.676 95.3133 199.854 94.8006 200.124 94.3373C200.393 93.8741 200.751 93.4694 201.174 93.1464C202.03 92.494 203.106 92.2139 204.166 92.3677C204.69 92.4439 205.195 92.6243 205.651 92.8986C206.106 93.1729 206.505 93.5358 206.822 93.9665L213.296 102.737L229.922 77.3938C230.516 76.4891 231.439 75.861 232.488 75.6478C233.537 75.4345 234.627 75.6536 235.517 76.2567C236.408 76.8599 237.026 77.7977 237.236 78.864C237.445 79.9302 237.23 81.0375 236.636 81.9422L216.847 112.107C216.489 112.653 216.007 113.103 215.443 113.421C214.878 113.738 214.247 113.913 213.602 113.932C213.564 113.933 213.527 113.933 213.489 113.933Z" fill="white"/>
</g>
<defs>
<clipPath id="clip0_53_1132">
<rect width="448" height="531" fill="white"/>
</clipPath>
</defs>
</svg>
