<svg width="659" height="461" viewBox="0 0 659 461" fill="none" xmlns="http://www.w3.org/2000/svg">
<g clip-path="url(#clip0_53_631)">
<path d="M38.9503 388.887L18.7467 371.985C21.0572 358.435 26.6787 345.648 35.1231 334.733C35.8021 359.151 61.1213 375.505 69.834 398.364C72.4962 405.514 73.4966 413.164 72.7611 420.749C72.0256 428.333 69.5732 435.656 65.5854 442.176L63.5528 460.623C52.5192 454.94 42.8632 446.959 35.2502 437.231C27.6371 427.502 22.248 416.258 19.4541 404.273C17.9541 397.534 17.3186 390.635 17.5625 383.739C27.9069 386.851 38.9503 388.887 38.9503 388.887Z" fill="#BDFF8A"/>
<path d="M605.289 421.216L619.398 399.079C633.294 399.449 646.888 403.165 659 409.907C634.636 413.982 621.79 441.049 600.11 452.77C593.32 456.374 585.796 458.422 578.096 458.761C570.397 459.1 562.718 457.722 555.631 454.729L536.869 455.316C541.021 443.722 547.667 433.155 556.348 424.345C565.03 415.534 575.54 408.689 587.155 404.28C593.696 401.871 600.518 400.285 607.46 399.561C605.787 410.121 605.289 421.216 605.289 421.216Z" fill="#BDFF8A"/>
<path d="M158.704 349.053L80.4746 344.516L91.1979 269.555L160.134 343.001L158.704 349.053Z" fill="#BDFF8A"/>
<path d="M148.746 425.528L69.0874 420.228L79.7089 352.088L149.106 420.24L148.746 425.528Z" fill="#BDFF8A"/>
<path d="M593.751 109.316V40.0749C593.751 34.8122 592.702 29.601 590.665 24.7389C588.628 19.8768 585.641 15.459 581.877 11.7377C578.113 8.01636 573.644 5.06446 568.725 3.05051C563.807 1.03656 558.535 -1.52588e-05 553.211 -1.52588e-05H404.814C399.491 -1.62531e-05 394.219 1.03655 389.301 3.05051C384.382 5.06446 379.913 8.01636 376.149 11.7377C372.384 15.459 369.398 19.8768 367.361 24.7389C365.323 29.601 364.275 34.8122 364.275 40.0749V419.938C364.275 430.566 368.546 440.76 376.149 448.275C383.751 455.791 394.063 460.013 404.814 460.013H553.211C563.963 460.013 574.274 455.791 581.877 448.275C589.48 440.76 593.751 430.566 593.751 419.938V158.603C594.429 158.603 595.079 158.337 595.559 157.863C596.038 157.389 596.308 156.746 596.308 156.076V111.844C596.308 111.173 596.038 110.531 595.559 110.057C595.079 109.583 594.429 109.316 593.751 109.316Z" fill="#3F3D56"/>
<path d="M585.123 40.35V419.664C585.124 427.543 581.98 435.104 576.374 440.705C570.768 446.305 563.153 449.493 555.183 449.575C555.073 449.586 554.963 449.591 554.852 449.589H405.733C397.704 449.588 390.005 446.435 384.329 440.823C378.652 435.211 375.462 427.6 375.461 419.664V40.35C375.462 32.4138 378.652 24.8028 384.328 19.1911C390.005 13.5794 397.704 10.4264 405.733 10.4257H423.829C422.939 12.5853 422.6 14.928 422.842 17.2476C423.083 19.5672 423.897 21.7926 425.213 23.728C426.529 25.6634 428.305 27.2495 430.387 28.3468C432.468 29.444 434.791 30.0187 437.149 30.0204H522.165C524.522 30.014 526.841 29.436 528.919 28.3371C530.997 27.2383 532.771 25.6521 534.085 23.7178C535.398 21.7835 536.212 19.56 536.454 17.2426C536.695 14.9251 536.358 12.5843 535.472 10.4257H554.852C562.88 10.4264 570.579 13.5793 576.256 19.1911C581.933 24.8028 585.122 32.4138 585.123 40.35Z" fill="white"/>
<path d="M552.292 440.329C552.292 444.259 552.167 448.156 551.917 452.02C551.807 452.033 551.697 452.038 551.587 452.035H402.472C395.725 452.035 389.172 449.807 383.851 445.706C378.531 441.604 374.749 435.864 373.105 429.395C372.817 428.266 372.599 427.121 372.454 425.965C372.284 424.688 372.2 423.4 372.201 422.111V253.071C383.675 253.632 395.073 255.224 406.255 257.827C407.351 258.076 408.438 258.341 409.518 258.614C409.587 258.629 409.656 258.652 409.725 258.667C410.821 258.94 411.908 259.227 412.988 259.523C436.04 265.781 457.679 276.314 476.754 290.559C477.849 291.37 478.937 292.202 480.017 293.043L480.224 293.202C482.031 294.61 483.811 296.054 485.562 297.533C485.953 297.859 486.343 298.192 486.726 298.532C487.669 299.335 488.611 300.153 489.53 300.978C509.87 319.077 526.017 341.304 536.866 366.141C537.226 366.951 537.57 367.769 537.915 368.586C538.053 368.92 538.191 369.253 538.329 369.586C538.459 369.889 538.581 370.192 538.704 370.495C547.709 392.7 552.321 416.406 552.292 440.329Z" fill="#3F3D56"/>
<path d="M365.095 148.052C364.18 148.051 363.303 147.692 362.656 147.052C362.009 146.413 361.645 145.546 361.644 144.641V121.444C361.644 120.539 362.008 119.671 362.655 119.032C363.302 118.392 364.18 118.033 365.095 118.033C366.01 118.033 366.888 118.392 367.535 119.032C368.182 119.671 368.546 120.539 368.546 121.444V144.641C368.545 145.545 368.181 146.413 367.534 147.052C366.887 147.692 366.01 148.051 365.095 148.052Z" fill="#3F3D56"/>
<path d="M364.405 103.023C363.49 103.022 362.612 102.662 361.966 102.022C361.319 101.383 360.955 100.516 360.954 99.6113V76.4141C360.954 75.5094 361.317 74.6417 361.964 74.002C362.612 73.3622 363.489 73.0028 364.405 73.0028C365.32 73.0028 366.198 73.3622 366.845 74.002C367.492 74.6417 367.855 75.5094 367.855 76.4141V99.6113C367.854 100.516 367.49 101.383 366.843 102.022C366.197 102.662 365.319 103.022 364.405 103.023Z" fill="#3F3D56"/>
<path d="M456.198 14.3277C456.199 13.4232 456.563 12.5562 457.21 11.9166C457.857 11.2771 458.734 10.9174 459.649 10.9163H483.115C483.569 10.9156 484.018 11.0034 484.437 11.1745C484.857 11.3457 485.238 11.5968 485.559 11.9137C485.88 12.2305 486.134 12.6068 486.308 13.021C486.482 13.4352 486.571 13.8793 486.571 14.3277C486.571 14.7761 486.482 15.2201 486.308 15.6343C486.134 16.0485 485.88 16.4248 485.559 16.7416C485.238 17.0585 484.857 17.3097 484.437 17.4808C484.018 17.6519 483.569 17.7397 483.115 17.739H459.649C458.734 17.7379 457.857 17.3782 457.21 16.7387C456.563 16.0991 456.199 15.2321 456.198 14.3277Z" fill="white"/>
<path d="M365.095 187.624C364.18 187.623 363.303 187.263 362.656 186.624C362.009 185.984 361.645 185.117 361.644 184.213V161.016C361.644 160.111 362.008 159.243 362.655 158.603C363.302 157.964 364.18 157.604 365.095 157.604C366.01 157.604 366.888 157.964 367.535 158.603C368.182 159.243 368.546 160.111 368.546 161.016V184.213C368.545 185.117 368.181 185.984 367.534 186.624C366.887 187.263 366.01 187.623 365.095 187.624Z" fill="#3F3D56"/>
<path d="M496.228 17.739C498.134 17.739 499.679 16.2117 499.679 14.3277C499.679 12.4436 498.134 10.9163 496.228 10.9163C494.322 10.9163 492.777 12.4436 492.777 14.3277C492.777 16.2117 494.322 17.739 496.228 17.739Z" fill="white"/>
<path opacity="0.2" d="M483.487 423.52C483.486 416.437 484.896 409.423 487.638 402.879C490.379 396.335 494.398 390.389 499.464 385.381C504.531 380.372 510.546 376.4 517.166 373.69C523.785 370.979 530.88 369.585 538.045 369.586H538.329C538.191 369.253 538.053 368.92 537.915 368.586C537.571 367.769 537.226 366.951 536.866 366.141H483.487V298.532H486.727C486.344 298.192 485.953 297.859 485.562 297.533C483.808 296.056 482.029 294.613 480.224 293.202L480.017 293.043V295.087H412.988V259.523C411.908 259.227 410.821 258.94 409.725 258.667C409.656 258.652 409.588 258.629 409.519 258.614V295.087H375.464V298.532H409.519V366.141H375.464V369.586H409.519V423.52H375.717C375.862 424.675 376.08 425.821 376.368 426.95H409.519V449.589H412.988V426.95H480.017V449.589H483.487V426.95H541.967V423.52H483.487ZM480.017 423.52H412.988V369.586H480.017V423.52ZM480.017 366.141H412.988V364.793C412.988 347.22 420.05 330.366 432.621 317.94C445.191 305.514 462.24 298.533 480.017 298.532V366.141Z" fill="black"/>
<path d="M182.797 176.263L145.595 459.16L145.357 460.962H143.81L144.048 459.16L181.28 176.067L182.797 176.263Z" fill="#E5E5E5"/>
<path d="M105.344 176.619L64.3194 459.19L64.0589 460.992H62.5117L62.7721 459.19L103.827 176.407L105.344 176.619Z" fill="#E5E5E5"/>
<path d="M240.642 460.924L239.048 460.932L238.558 459.13L159.198 167.73L160.676 167.336L240.144 459.13L240.642 460.924Z" fill="#3F3D56"/>
<path d="M237.281 167.325L235.807 167.738L319.438 459.366L320.912 458.953L237.281 167.325Z" fill="#3F3D56"/>
<path d="M304.948 405.862L229.114 421.371L229.424 422.854L305.259 407.345L304.948 405.862Z" fill="#3F3D56"/>
<path d="M291.8 360.371L215.966 375.88L216.276 377.363L292.111 361.854L291.8 360.371Z" fill="#3F3D56"/>
<path d="M278.662 314.878L203.356 329.285L203.647 330.771L278.953 316.364L278.662 314.878Z" fill="#3F3D56"/>
<path d="M265.512 269.396L191.847 283.786L192.144 285.272L265.809 270.881L265.512 269.396Z" fill="#3F3D56"/>
<path d="M104.049 176.567C102.897 169.128 104.782 161.541 109.288 155.475C113.795 149.41 120.555 145.362 128.08 144.224C135.606 143.085 143.28 144.948 149.416 149.403C155.552 153.858 159.646 160.54 160.798 167.98L159.284 168.209C158.746 164.72 157.518 161.371 155.669 158.352C153.821 155.333 151.39 152.704 148.513 150.614C145.637 148.524 142.372 147.016 138.905 146.174C135.439 145.332 131.838 145.173 128.31 145.707C124.781 146.241 121.394 147.457 118.341 149.285C115.288 151.114 112.629 153.519 110.517 156.364C108.404 159.208 106.88 162.436 106.03 165.863C105.18 169.291 105.021 172.85 105.563 176.338L104.049 176.567Z" fill="#3F3D56"/>
<path d="M180.767 176.906C180.147 173.229 180.265 169.468 181.115 165.837C181.966 162.206 183.531 158.776 185.723 155.743C187.914 152.71 190.688 150.133 193.887 148.16C197.086 146.187 200.647 144.857 204.366 144.245C208.085 143.632 211.89 143.751 215.563 144.592C219.236 145.434 222.706 146.982 225.773 149.15C228.84 151.317 231.446 154.061 233.441 157.224C235.435 160.386 236.78 163.907 237.398 167.584L235.887 167.832C234.7 160.807 230.74 154.536 224.877 150.397C219.014 146.258 211.728 144.591 204.621 145.76C197.515 146.93 191.169 150.842 186.979 156.636C182.789 162.43 181.098 169.631 182.278 176.657L180.767 176.906Z" fill="#3F3D56"/>
<path d="M259.918 238.7L245.197 274.102L293.16 273.758L288.282 238.621L259.918 238.7Z" fill="#FFB6B6"/>
<path d="M271.63 401.216L278.744 402.242L286.131 375.605L275.631 374.091L271.63 401.216Z" fill="#FFB6B6"/>
<path d="M270.378 397.493L281.721 398.451L281.019 403.214L290.633 412.056C291.108 412.492 291.429 413.067 291.55 413.697C291.671 414.327 291.585 414.979 291.304 415.557C291.024 416.135 290.564 416.61 289.992 416.911C289.419 417.212 288.764 417.325 288.123 417.232L274.734 415.302L273.121 410.258L271.525 414.839L266.477 414.111L270.378 397.493Z" fill="#2F2E41"/>
<path d="M189.414 381.543L195.09 385.905L214.813 366.341L206.437 359.902L189.414 381.543Z" fill="#FFB6B6"/>
<path d="M190.184 377.693L199.572 384.061L196.583 387.86L200.531 400.24C200.727 400.852 200.719 401.509 200.509 402.116C200.3 402.723 199.9 403.247 199.367 403.613C198.835 403.979 198.198 404.168 197.55 404.151C196.901 404.133 196.276 403.912 195.764 403.518L185.083 395.307L186.198 390.134L182.523 393.34L178.496 390.244L190.184 377.693Z" fill="#2F2E41"/>
<path d="M247.905 265.702L243.181 271.887L230.608 325.964L202.029 364.12L211.636 373.239L248.088 338.281L265.976 300.93L275.027 335.43L272.729 381.618L288.048 380.86C292.2 327.259 298.694 272.108 291.044 256.619C286.002 260.967 280.115 264.253 273.745 266.275C267.374 268.297 260.653 269.013 253.992 268.379L247.905 265.702Z" fill="#2F2E41"/>
<path d="M273.19 181.45L285.276 194.514C287.928 197.381 289.609 200.995 290.085 204.852C290.301 206.603 290.265 208.376 289.978 210.117L287.373 228.986L291.968 257.758C291.968 257.758 285.419 261.708 272.82 269.873C267.678 273.206 243.684 273.152 243.713 272.145C243.849 267.479 248.071 254.905 249.075 239.586C250.314 220.679 248.689 198.112 252.905 187.341C258.051 174.192 273.19 181.45 273.19 181.45Z" fill="#6C63FF"/>
<path d="M231.717 265.165C232.244 264.406 232.597 263.543 232.75 262.636C232.904 261.728 232.854 260.798 232.604 259.912C232.355 259.025 231.911 258.203 231.306 257.505C230.7 256.806 229.947 256.247 229.1 255.867L229.572 241.491L220.805 239.076L220.426 259.387C219.875 260.837 219.88 262.437 220.442 263.883C221.004 265.329 222.084 266.521 223.475 267.233C224.867 267.946 226.475 268.128 227.994 267.747C229.513 267.366 230.837 266.447 231.717 265.165Z" fill="#FFB6B6"/>
<path d="M220.023 207.133C220.282 206.463 220.678 205.853 221.188 205.343C221.697 204.832 222.308 204.432 222.982 204.167C227.648 202.229 247.822 185.933 248.565 186.239L254.97 183.114C255.206 183.117 261.515 183.264 264.61 186.733C265.254 187.466 265.729 188.327 266.004 189.259C266.279 190.19 266.346 191.169 266.202 192.128C265.296 200.391 236.697 218.949 233.666 218.824L230.455 242.283L231.704 251.245L220.008 251.574L216.404 238.378C215.887 237.416 215.234 219.188 220.023 207.133Z" fill="#6C63FF"/>
<path d="M266.912 194.602C267.858 188.188 264.214 182.352 258.772 181.568C253.331 180.783 248.152 185.346 247.205 191.76C246.259 198.174 249.903 204.01 255.345 204.794C260.787 205.579 265.965 201.016 266.912 194.602Z" fill="#6C63FF"/>
<path d="M178.997 236.537L178.701 235.051L249.841 219.142V220.657L178.997 236.537Z" fill="#3F3D56"/>
<path d="M493.934 129.53H466.65C460.764 129.53 455.993 134.247 455.993 140.065V140.065C455.993 145.883 460.764 150.6 466.65 150.6H493.934C499.82 150.6 504.591 145.883 504.591 140.065C504.591 134.247 499.82 129.53 493.934 129.53Z" fill="#FFE98A"/>
<path d="M544.554 171.669H416.031C410.145 171.669 405.374 176.385 405.374 182.203V182.203C405.374 188.022 410.145 192.738 416.031 192.738H544.554C550.439 192.738 555.211 188.022 555.211 182.203C555.211 176.385 550.439 171.669 544.554 171.669Z" fill="#FFE98A"/>
<path d="M489.405 203.207H360.882C354.996 203.207 350.225 207.923 350.225 213.741V213.742C350.225 219.56 354.996 224.276 360.882 224.276H489.405C495.29 224.276 500.062 219.56 500.062 213.741C500.062 207.923 495.29 203.207 489.405 203.207Z" fill="#6C63FF"/>
<path d="M658.819 459.864C658.819 459.983 658.796 460.1 658.75 460.21C658.705 460.319 658.637 460.418 658.553 460.502C658.468 460.586 658.367 460.652 658.257 460.697C658.146 460.743 658.027 460.766 657.907 460.765L203.935 460.924L202.342 460.932L108.65 460.962H107.103L27.3522 460.992H25.8049L0.911485 461C0.669745 461 0.437902 460.905 0.266966 460.736C0.0960298 460.567 0 460.338 0 460.099C0 459.86 0.0960298 459.631 0.266966 459.462C0.437902 459.293 0.669745 459.198 0.911485 459.198L26.0654 459.19H27.6126L107.341 459.16H108.888L201.852 459.13H203.437L282.652 459.099H283.694L657.907 458.963C658.027 458.963 658.146 458.986 658.257 459.031C658.367 459.076 658.468 459.143 658.553 459.226C658.637 459.31 658.705 459.41 658.75 459.519C658.796 459.628 658.819 459.746 658.819 459.864Z" fill="#CACACA"/>
<path d="M285.978 168.405C283.692 171.407 280.439 173.551 276.756 174.482C273.072 175.413 269.178 175.076 265.714 173.527C262.25 171.977 259.423 169.308 257.699 165.959C255.975 162.609 255.456 158.779 256.227 155.099C256.999 151.419 259.016 148.108 261.945 145.713C264.874 143.317 268.542 141.979 272.343 141.919C276.145 141.859 279.853 143.08 282.859 145.382C285.864 147.684 287.987 150.929 288.877 154.583C288.925 154.781 288.966 154.978 289.005 155.183C289.476 157.473 289.449 159.836 288.927 162.115C288.405 164.394 287.4 166.538 285.978 168.405Z" fill="#FFB6B6"/>
<path d="M290.332 155.374C289.91 153.301 290.07 154.372 289.639 152.305C289.728 153.306 289.507 154.309 289.006 155.183L269.292 152.34L270.964 141.011C277.073 139.581 283.004 138.47 285.796 143.15C288.836 143.588 291.574 145.202 293.41 147.637C295.246 150.071 296.028 153.127 295.585 156.131L290.332 155.374Z" fill="#2F2E41"/>
<path d="M278.697 185.857C278.713 185.645 278.722 185.424 278.723 185.21C278.685 183.633 278.478 182.064 278.105 180.53C277.77 178.867 277.428 177.196 277.086 175.532C277.404 178.508 276.731 181.506 275.168 184.07C272.219 181.028 274.168 176.624 269.818 175.997C259.358 174.489 250.847 163.4 252.374 153.053C253.9 142.713 259.528 135.628 269.987 137.136C280.455 138.646 288.245 144.605 286.923 154.974C273.596 156.113 281.285 185.159 278.697 185.857Z" fill="#2F2E41"/>
<path d="M255.684 146.574C259.542 146.574 262.67 143.482 262.67 139.668C262.67 135.854 259.542 132.762 255.684 132.762C251.826 132.762 248.698 135.854 248.698 139.668C248.698 143.482 251.826 146.574 255.684 146.574Z" fill="#2F2E41"/>
<path d="M263.971 133.966C263.319 132.572 262.33 131.359 261.091 130.434C259.852 129.508 258.401 128.899 256.867 128.66C257.947 129.143 258.891 129.882 259.615 130.811C260.339 131.739 260.821 132.83 261.018 133.986C261.216 135.142 261.122 136.329 260.746 137.441C260.37 138.553 259.723 139.556 258.863 140.363L260.275 139.163C260.66 139.487 261.14 139.681 261.645 139.717C262.149 139.752 262.652 139.628 263.08 139.361C263.499 139.082 263.849 138.712 264.103 138.28C264.357 137.848 264.509 137.365 264.547 136.866C264.614 135.866 264.416 134.867 263.971 133.966Z" fill="#2F2E41"/>
<path d="M352.901 207.011C352.071 206.595 351.158 206.364 350.228 206.335C349.298 206.305 348.372 206.478 347.516 206.84C346.661 207.203 345.896 207.746 345.276 208.432C344.656 209.118 344.195 209.931 343.927 210.812L329.451 212.262L328.197 221.173L348.611 218.842C350.138 219.189 351.741 218.97 353.116 218.227C354.491 217.484 355.543 216.268 356.072 214.81C356.601 213.352 356.57 211.752 355.986 210.315C355.401 208.877 354.304 207.702 352.901 207.011Z" fill="#FFB6B6"/>
<path d="M296.274 226.189C295.568 226.025 294.905 225.717 294.325 225.286C293.746 224.855 293.263 224.309 292.908 223.684C290.344 219.37 271.321 201.773 271.529 201.004L267.544 195.145C267.515 194.913 266.824 188.712 269.89 185.218C270.539 184.49 271.339 183.91 272.236 183.517C273.134 183.124 274.106 182.927 275.087 182.941C283.492 182.729 304.621 209.024 304.899 212.01L330.128 211.292L338.947 208.875L340.833 220.29L328.082 225.577C327.186 226.212 308.998 229.277 296.274 226.189Z" fill="#6C63FF"/>
</g>
<defs>
<clipPath id="clip0_53_631">
<rect width="659" height="461" fill="white"/>
</clipPath>
</defs>
</svg>
