<svg width="400" height="306" viewBox="0 0 400 306" fill="none" xmlns="http://www.w3.org/2000/svg">
<g clip-path="url(#clip0_71_607)">
<path d="M321.31 80.221L314.495 55.9745L304.911 21.8838L304.368 19.9594V19.9547L300.579 6.47439C299.956 4.26749 298.39 2.37447 296.226 1.21061C294.062 0.0467484 291.476 -0.292898 289.035 0.266186L263.857 6.0583L106.541 42.2626C104.102 42.8267 102.01 44.2432 100.723 46.2012C99.4369 48.1593 99.0616 50.4991 99.6795 52.7073L105.109 72.0269L118.905 121.102L124.094 139.565L124.361 140.511H125.511L125.244 139.565L120.285 121.91V121.905L105.893 70.7172L100.761 52.4614C100.216 50.5122 100.547 48.4469 101.683 46.7184C102.818 44.99 104.665 43.7396 106.818 43.2413L263.805 7.11273L289.307 1.24496C291.461 0.75168 293.744 1.05158 295.654 2.07889C297.565 3.10619 298.947 4.77705 299.497 6.72501L303.521 21.0327L304.065 22.976L313.377 56.1069L320.155 80.221L320.437 81.2329H321.597L321.31 80.221Z" fill="#CCCCCC"/>
<path d="M152.007 113.897C166.887 113.897 178.95 102.983 178.95 89.5196C178.95 76.0562 166.887 65.1419 152.007 65.1419C137.127 65.1419 125.064 76.0562 125.064 89.5196C125.064 102.983 137.127 113.897 152.007 113.897Z" fill="#F2F2F2"/>
<path d="M213.126 80.221L214.417 81.2328H193.901C191.678 81.235 189.548 82.0348 187.976 83.4566C186.405 84.8784 185.521 86.8062 185.518 88.8169V146.672L185.221 160.37L172.109 149.759L170.881 150.043L161.161 142.284C159.73 141.14 157.887 140.51 155.977 140.511H130.402L130.794 139.565L135.905 127.21L164.882 57.114L167.861 49.9129C168.044 49.4702 168.343 49.0742 168.732 48.7587C169.12 48.4432 169.588 48.2174 170.094 48.1008C170.6 47.9843 171.13 47.9802 171.639 48.0891C172.147 48.198 172.619 48.4165 173.013 48.7261L192.511 64.0314L203.986 73.0435L213.126 80.221Z" fill="#E6E6E6"/>
<path d="M298.432 80.221L299.728 81.2328H236.945L237.369 80.221L250.741 48.2816C250.925 47.8405 251.223 47.4459 251.611 47.1315C252 46.8171 252.466 46.5921 252.971 46.4756C253.475 46.3591 254.004 46.3546 254.511 46.4624C255.018 46.5702 255.489 46.7871 255.884 47.0948L282.467 67.7951L283.998 68.9819L298.432 80.221Z" fill="#E6E6E6"/>
<path d="M322.769 90.1452C320.32 90.1436 317.904 90.6562 315.712 91.6427C313.519 92.6292 311.609 94.0626 310.133 95.8302C308.548 95.2132 306.819 94.9619 305.1 95.0989C303.382 95.2358 301.728 95.7568 300.287 96.615C298.845 97.4732 297.662 98.6417 296.844 100.016C296.025 101.39 295.596 102.926 295.596 104.487H338.62C338.62 102.604 338.21 100.739 337.413 98.9988C336.617 97.2587 335.449 95.6777 333.977 94.3459C332.505 93.0141 330.758 91.9577 328.835 91.2369C326.912 90.5162 324.851 90.1452 322.769 90.1452Z" fill="#E6E6E6"/>
<path d="M382.201 80.221H193.901C191.782 80.2243 189.725 80.8669 188.055 82.047C186.386 83.2271 185.199 84.8774 184.683 86.7365V86.7412C184.495 87.4201 184.4 88.1172 184.4 88.8169V160.828L185.012 161.315L185.519 161.722V88.8169C185.521 86.8062 186.405 84.8784 187.976 83.4566C189.548 82.0348 191.678 81.235 193.901 81.2328H382.201C384.424 81.2342 386.555 82.0337 388.126 83.4557C389.698 84.8777 390.582 86.8059 390.583 88.8169V176.446H391.116C391.312 176.444 391.507 176.452 391.701 176.469V88.8169C391.698 86.5382 390.696 84.3537 388.915 82.7423C387.134 81.131 384.719 80.2243 382.201 80.221Z" fill="#3F3D56"/>
<path d="M228.514 146.284C242.612 146.284 254.041 135.943 254.041 123.188C254.041 110.432 242.612 100.092 228.514 100.092C214.417 100.092 202.988 110.432 202.988 123.188C202.988 135.943 214.417 146.284 228.514 146.284Z" fill="#6C63FF"/>
<path d="M382.409 176.446H207.33C205.167 176.44 203.079 175.726 201.451 174.436L197.521 171.301L198.122 170.517L199.209 169.098L246.398 107.626L251.242 101.314C251.54 100.925 251.938 100.608 252.401 100.389C252.865 100.169 253.38 100.055 253.902 100.055C254.425 100.055 254.94 100.169 255.403 100.389C255.866 100.608 256.264 100.925 256.562 101.314L271.289 120.496V120.501L279.953 131.787L300.636 158.729L332.007 118.213C332.305 117.826 332.702 117.51 333.165 117.292C333.627 117.075 334.14 116.961 334.661 116.961C335.183 116.961 335.696 117.075 336.158 117.292C336.62 117.51 337.017 117.826 337.316 118.213L357.441 144.199L358.595 145.693L381.678 175.5L382.409 176.446Z" fill="#3F3D56"/>
<path d="M288.891 114.093C285.87 114.091 282.889 114.723 280.184 115.94C277.479 117.158 275.122 118.926 273.301 121.107C271.346 120.346 269.212 120.036 267.092 120.205C264.971 120.374 262.931 121.016 261.153 122.075C259.375 123.134 257.915 124.576 256.905 126.271C255.895 127.966 255.366 129.862 255.365 131.788H308.447C308.447 129.464 307.941 127.163 306.959 125.016C305.976 122.869 304.535 120.919 302.719 119.276C300.903 117.632 298.747 116.329 296.375 115.44C294.002 114.551 291.459 114.093 288.891 114.093Z" fill="#CCCCCC"/>
<path d="M197.486 170.006L190.985 164.824L190.969 164.814L190.948 164.8L190.932 164.786C190.729 164.654 190.525 164.516 190.326 164.375C190.274 164.341 190.227 164.308 190.18 164.275C190.154 164.256 190.133 164.242 190.107 164.223C190.096 164.219 190.091 164.209 190.08 164.204C189.934 164.1 189.783 163.992 189.636 163.883C189.563 163.836 189.495 163.784 189.422 163.732C189.224 163.585 189.025 163.434 188.826 163.282C188.617 163.122 188.408 162.961 188.199 162.795C188.194 162.791 188.184 162.786 188.178 162.781C188.137 162.748 188.1 162.715 188.058 162.687C187.86 162.526 187.661 162.365 187.462 162.195C187.295 162.058 187.128 161.916 186.966 161.779C186.814 161.651 186.663 161.523 186.517 161.386L186.485 161.358C186.375 161.263 186.266 161.164 186.151 161.06C186.041 160.965 185.937 160.866 185.832 160.767C185.722 160.672 185.618 160.573 185.518 160.474L185.435 160.398L185.409 160.374L184.4 159.566V160.828L185.012 161.315L185.518 161.722L196.258 170.29L197.266 171.098L197.522 171.301L197.763 170.985L198.123 170.517L197.486 170.006ZM353.558 175.5C353.574 175.812 353.6 176.129 353.626 176.446H390.583V175.5H353.558ZM197.486 170.006L190.985 164.824L190.969 164.814L190.948 164.8L190.932 164.786C190.729 164.654 190.525 164.516 190.326 164.375C190.274 164.341 190.227 164.308 190.18 164.275C190.154 164.256 190.133 164.242 190.107 164.223C190.096 164.219 190.091 164.209 190.08 164.204C189.934 164.1 189.783 163.992 189.636 163.883C189.563 163.836 189.495 163.784 189.422 163.732C189.224 163.585 189.025 163.434 188.826 163.282C188.617 163.122 188.408 162.961 188.199 162.795C188.194 162.791 188.184 162.786 188.178 162.781C188.137 162.748 188.1 162.715 188.058 162.687C187.86 162.526 187.661 162.365 187.462 162.195C187.295 162.058 187.128 161.916 186.966 161.779C186.814 161.651 186.663 161.523 186.517 161.386L186.485 161.358C186.375 161.263 186.266 161.164 186.151 161.06C186.041 160.965 185.937 160.866 185.832 160.767C185.722 160.672 185.618 160.573 185.518 160.474L185.435 160.398L185.409 160.374L184.4 159.566V160.828L185.012 161.315L185.518 161.722L196.258 170.29L197.266 171.098L197.522 171.301L197.763 170.985L198.123 170.517L197.486 170.006ZM381.678 175.5H353.558C353.574 175.812 353.6 176.129 353.626 176.446H382.41L381.678 175.5ZM197.486 170.006L190.985 164.824L190.969 164.814L190.948 164.8L190.932 164.786C190.729 164.654 190.525 164.516 190.326 164.375C190.274 164.341 190.227 164.308 190.18 164.275C190.154 164.256 190.133 164.242 190.107 164.223C190.096 164.219 190.091 164.209 190.08 164.204C189.934 164.1 189.783 163.992 189.636 163.883C189.563 163.836 189.495 163.784 189.422 163.732C189.224 163.585 189.025 163.434 188.826 163.282C188.617 163.122 188.408 162.961 188.199 162.795C188.194 162.791 188.184 162.786 188.178 162.781C188.137 162.748 188.1 162.715 188.058 162.687C187.86 162.526 187.661 162.365 187.462 162.195C187.295 162.058 187.128 161.916 186.966 161.779C186.814 161.651 186.663 161.523 186.517 161.386L186.485 161.358C186.375 161.263 186.266 161.164 186.151 161.06C186.041 160.965 185.937 160.866 185.832 160.767C185.722 160.672 185.618 160.573 185.518 160.474L185.435 160.398L185.409 160.374L184.4 159.566V160.828L185.012 161.315L185.518 161.722L196.258 170.29L197.266 171.098L197.522 171.301L197.763 170.985L198.123 170.517L197.486 170.006ZM172.109 149.76L161.851 141.575C160.229 140.279 158.14 139.565 155.977 139.565H125.244L125.511 140.511H155.977C157.886 140.51 159.73 141.14 161.161 142.284L170.881 150.043L184.4 160.828V159.566L172.109 149.76ZM391.701 175.519C391.508 175.505 391.315 175.5 391.116 175.5H207.331C205.564 175.502 203.849 174.962 202.466 173.968C202.356 173.893 202.251 173.812 202.147 173.727L198.499 170.814L198.123 170.517L197.486 170.006L190.985 164.824L190.969 164.814L190.948 164.8L190.932 164.786L186.59 161.315L185.518 160.46L185.435 160.398L185.409 160.374L184.4 159.566L172.109 149.76L161.851 141.575C160.229 140.279 158.14 139.565 155.977 139.565L111.015 139.565C108.66 139.568 106.402 140.416 104.737 141.923C103.071 143.43 102.134 145.473 102.131 147.603V297.962C102.134 300.093 103.071 302.136 104.737 303.642C106.402 305.149 108.66 305.997 111.015 306H391.116C393.471 305.997 395.729 305.149 397.394 303.642C399.059 302.136 399.996 300.093 400 297.962V183.538C399.996 181.499 399.137 179.537 397.597 178.049C396.057 176.561 393.95 175.656 391.701 175.519ZM398.955 297.962C398.952 299.842 398.125 301.645 396.656 302.975C395.186 304.304 393.194 305.052 391.116 305.054H111.015C108.936 305.052 106.944 304.304 105.475 302.975C104.005 301.645 103.179 299.842 103.176 297.962V147.603C103.179 145.723 104.005 143.92 105.475 142.591C106.944 141.261 108.936 140.513 111.015 140.511H155.977C157.886 140.51 159.73 141.14 161.161 142.284L170.881 150.043L184.4 160.828L185.012 161.315L185.518 161.722L196.258 170.29L197.266 171.098L197.522 171.301L201.452 174.436C203.079 175.726 205.167 176.44 207.331 176.446H391.116C391.311 176.444 391.507 176.452 391.701 176.469C393.672 176.604 395.514 177.407 396.859 178.718C398.204 180.028 398.952 181.75 398.955 183.538L398.955 297.962ZM197.486 170.006L190.985 164.824L190.969 164.814L190.948 164.8L190.932 164.786C190.729 164.654 190.525 164.516 190.326 164.375C190.274 164.341 190.227 164.308 190.18 164.275C190.154 164.256 190.133 164.242 190.107 164.223C190.096 164.219 190.091 164.209 190.08 164.204C189.934 164.1 189.783 163.992 189.636 163.883C189.563 163.836 189.495 163.784 189.422 163.732C189.224 163.585 189.025 163.434 188.826 163.282C188.617 163.122 188.408 162.961 188.199 162.795C188.194 162.791 188.184 162.786 188.178 162.781C188.137 162.748 188.1 162.715 188.058 162.687C187.86 162.526 187.661 162.365 187.462 162.195C187.295 162.058 187.128 161.916 186.966 161.779C186.814 161.651 186.663 161.523 186.517 161.386L186.485 161.358C186.375 161.263 186.266 161.164 186.151 161.06C186.041 160.965 185.937 160.866 185.832 160.767C185.722 160.672 185.618 160.573 185.518 160.474L185.435 160.398L185.409 160.374L184.4 159.566V160.828L185.012 161.315L185.518 161.722L196.258 170.29L197.266 171.098L197.522 171.301L197.763 170.985L198.123 170.517L197.486 170.006ZM353.558 175.5C353.574 175.812 353.6 176.129 353.626 176.446H390.583V175.5H353.558ZM197.486 170.006L190.985 164.824L190.969 164.814L190.948 164.8L190.932 164.786C190.729 164.654 190.525 164.516 190.326 164.375C190.274 164.341 190.227 164.308 190.18 164.275C190.154 164.256 190.133 164.242 190.107 164.223C190.096 164.219 190.091 164.209 190.08 164.204C189.934 164.1 189.783 163.992 189.636 163.883C189.563 163.836 189.495 163.784 189.422 163.732C189.224 163.585 189.025 163.434 188.826 163.282C188.617 163.122 188.408 162.961 188.199 162.795C188.194 162.791 188.184 162.786 188.178 162.781C188.137 162.748 188.1 162.715 188.058 162.687C187.86 162.526 187.661 162.365 187.462 162.195C187.295 162.058 187.128 161.916 186.966 161.779C186.814 161.651 186.663 161.523 186.517 161.386L186.485 161.358C186.375 161.263 186.266 161.164 186.151 161.06C186.041 160.965 185.937 160.866 185.832 160.767C185.722 160.672 185.618 160.573 185.518 160.474L185.435 160.398L185.409 160.374L184.4 159.566V160.828L185.012 161.315L185.518 161.722L196.258 170.29L197.266 171.098L197.522 171.301L197.763 170.985L198.123 170.517L197.486 170.006ZM197.486 170.006L190.985 164.824L190.969 164.814L190.948 164.8L190.932 164.786C190.729 164.654 190.525 164.516 190.326 164.375C190.274 164.341 190.227 164.308 190.18 164.275C190.154 164.256 190.133 164.242 190.107 164.223C190.096 164.219 190.091 164.209 190.08 164.204C189.934 164.1 189.783 163.992 189.636 163.883C189.563 163.836 189.495 163.784 189.422 163.732C189.224 163.585 189.025 163.434 188.826 163.282C188.617 163.122 188.408 162.961 188.199 162.795C188.194 162.791 188.184 162.786 188.178 162.781C188.137 162.748 188.1 162.715 188.058 162.687C187.86 162.526 187.661 162.365 187.462 162.195C187.295 162.058 187.128 161.916 186.966 161.779C186.814 161.651 186.663 161.523 186.517 161.386L186.485 161.358C186.375 161.263 186.266 161.164 186.151 161.06C186.041 160.965 185.937 160.866 185.832 160.767C185.722 160.672 185.618 160.573 185.518 160.474L185.435 160.398L185.409 160.374L184.4 159.566V160.828L185.012 161.315L185.518 161.722L196.258 170.29L197.266 171.098L197.522 171.301L197.763 170.985L198.123 170.517L197.486 170.006ZM381.678 175.5H353.558C353.574 175.812 353.6 176.129 353.626 176.446H382.41L381.678 175.5Z" fill="#3F3D56"/>
<path d="M27.6641 147.887V136.728C27.6641 132.277 29.6186 128.007 33.0977 124.859C36.5767 121.712 41.2954 119.943 46.2156 119.943C51.1357 119.943 55.8544 121.712 59.3334 124.859C62.8125 128.007 64.767 132.277 64.767 136.728V147.887C64.7667 148.125 64.662 148.354 64.4758 148.522C64.2897 148.69 64.0372 148.785 63.7739 148.785H62.6589C62.4668 148.785 62.2788 148.735 62.1178 148.64C61.9567 148.545 61.8295 148.41 61.7514 148.252L61.487 147.714C61.4432 147.625 61.3668 147.552 61.2708 147.508C61.1747 147.463 61.0647 147.45 60.9593 147.47C60.8538 147.491 60.7592 147.543 60.6913 147.619C60.6235 147.695 60.5864 147.789 60.5864 147.887C60.5861 148.125 60.4814 148.354 60.2952 148.522C60.109 148.69 59.8566 148.785 59.5933 148.785H28.6571C28.3939 148.785 28.1414 148.69 27.9553 148.522C27.7691 148.354 27.6644 148.125 27.6641 147.887Z" fill="#2F2E41"/>
<path d="M66.6221 299.529H73.0289L76.0766 277.17L66.6211 277.17L66.6221 299.529Z" fill="#FFB8B8"/>
<path d="M85.3848 304.911L65.2495 304.912L65.2491 297.873L77.6049 297.872C79.6681 297.872 81.6469 298.614 83.1059 299.934C84.565 301.254 85.3847 303.044 85.3848 304.911Z" fill="#2F2E41"/>
<path d="M19.0675 299.529H25.4742L28.5219 277.17L19.0664 277.17L19.0675 299.529Z" fill="#FFB8B8"/>
<path d="M37.8301 304.911L17.6948 304.912L17.6944 297.873L30.0502 297.872C32.1134 297.872 34.0922 298.614 35.5513 299.934C37.0103 301.254 37.83 303.044 37.8301 304.911Z" fill="#2F2E41"/>
<path d="M56.1991 279.483L43.8112 233.926C43.7065 233.541 43.4525 233.202 43.0954 232.973C42.7384 232.743 42.302 232.637 41.8658 232.673C41.4295 232.71 41.0223 232.887 40.7182 233.173C40.4142 233.458 40.2335 233.833 40.2091 234.229L37.4515 278.783C37.4339 279.067 37.3539 279.344 37.2162 279.599C37.0784 279.853 36.8858 280.081 36.6496 280.267C36.4133 280.454 36.1383 280.595 35.8406 280.684C35.5429 280.773 35.2286 280.807 34.9161 280.785L12.8907 279.191C12.2908 279.148 11.7321 278.898 11.3296 278.493C10.9271 278.089 10.7116 277.56 10.7274 277.015C11.0174 267.213 16.563 198.823 32.3803 183.873C32.6587 183.616 33.0052 183.427 33.3868 183.324C33.7685 183.221 34.1728 183.209 34.5615 183.287L55.6843 188.488C56.1202 188.575 56.52 188.772 56.8371 189.056C57.1543 189.34 57.3757 189.7 57.4757 190.094L80.7485 274.97C80.8178 275.248 80.8248 275.535 80.7691 275.815C80.7135 276.096 80.5963 276.363 80.4245 276.601C80.2527 276.839 80.0298 277.044 79.769 277.203C79.5082 277.362 79.2148 277.472 78.9061 277.527L58.9344 281.062C58.3414 281.168 57.7261 281.063 57.2166 280.769C56.7072 280.474 56.3427 280.014 56.1991 279.483Z" fill="#2F2E41"/>
<path d="M48.7491 148.539C55.8377 148.539 61.5841 143.339 61.5841 136.926C61.5841 130.512 55.8377 125.313 48.7491 125.313C41.6605 125.313 35.9141 130.512 35.9141 136.926C35.9141 143.339 41.6605 148.539 48.7491 148.539Z" fill="#FFB8B8"/>
<path d="M55.4176 189.751L33.2574 185.25C32.7754 185.152 32.3397 184.92 32.0121 184.586C31.6845 184.251 31.4818 183.832 31.4327 183.387L29.8914 169.569C29.4748 165.88 30.5691 162.181 32.9667 159.174C35.3643 156.167 38.8984 154.061 42.8985 153.255C43.0764 153.22 43.254 153.185 43.4315 153.152C46.1852 152.629 49.0413 152.754 51.7262 153.516C54.411 154.277 56.835 155.65 58.7661 157.501C60.749 159.368 62.1694 161.664 62.8915 164.169C63.6135 166.674 63.613 169.305 62.89 171.81L58.2096 188.207C58.0816 188.663 57.7892 189.068 57.3784 189.357C56.9676 189.646 56.462 189.804 55.9415 189.804C55.7653 189.803 55.5896 189.786 55.4176 189.751Z" fill="#6C63FF"/>
<path d="M0.476449 210.704C0.17119 210.14 0.00617969 209.523 -0.00696077 208.896C-0.0201012 208.268 0.118948 207.646 0.400394 207.073C0.681839 206.499 1.09884 205.988 1.62201 205.576C2.14518 205.165 2.76181 204.861 3.42846 204.689L19.468 175.03L27.7422 180.605L9.43422 207.917C9.68112 208.949 9.50081 210.028 8.92748 210.948C8.35414 211.869 7.4276 212.567 6.32343 212.91C5.21927 213.254 4.01419 213.219 2.93655 212.812C1.85891 212.406 0.983597 211.655 0.476449 210.704Z" fill="#FFB8B8"/>
<path d="M109.587 194.741C109.587 194.114 109.435 193.494 109.141 192.925C108.848 192.357 108.42 191.853 107.888 191.45C107.357 191.048 106.734 190.755 106.064 190.594C105.393 190.432 104.692 190.406 104.01 190.516L75.1778 170.275L70.4609 178.576L100.188 195.807C100.468 196.832 101.155 197.729 102.118 198.327C103.08 198.925 104.252 199.183 105.41 199.051C106.569 198.92 107.634 198.409 108.404 197.614C109.173 196.82 109.594 195.798 109.587 194.741Z" fill="#FFB8B8"/>
<path d="M27.0296 182.977C26.7034 182.977 26.3824 182.903 26.0966 182.76L17.4108 178.441C16.9746 178.224 16.6468 177.864 16.495 177.435C16.3432 177.006 16.3789 176.541 16.5948 176.135L25.3439 159.685C26.1382 158.14 27.5301 156.913 29.2566 156.234C30.4979 155.759 31.8578 155.595 33.1931 155.761C34.5284 155.927 35.7895 156.415 36.8436 157.175C37.6612 157.754 38.3295 158.488 38.8019 159.324C39.3796 160.318 39.6744 161.426 39.6596 162.549C39.6447 163.671 39.3207 164.773 38.7169 165.753L28.736 182.07C28.567 182.345 28.3196 182.575 28.0196 182.734C27.7195 182.894 27.3777 182.978 27.0296 182.977Z" fill="#6C63FF"/>
<path d="M70.7486 180.08L53.8481 169.405C52.8287 168.764 52.0019 167.904 51.4424 166.902C50.8828 165.9 50.6083 164.788 50.6436 163.666C50.6608 162.726 50.904 161.802 51.3564 160.956C51.9332 159.854 52.8278 158.913 53.9461 158.232C55.0644 157.552 56.365 157.157 57.7106 157.089C59.5913 157.011 61.4383 157.559 62.9029 158.629L78.7623 169.914C79.1536 170.193 79.412 170.596 79.4844 171.042C79.5568 171.488 79.4377 171.941 79.1515 172.31L73.4543 179.648C73.158 180.029 72.7069 180.288 72.1999 180.369C71.6928 180.45 71.171 180.346 70.7486 180.08Z" fill="#6C63FF"/>
<path d="M33.9355 132.946C33.9355 129.748 35.3395 126.681 37.8386 124.42C40.3376 122.159 43.7271 120.889 47.2613 120.889C50.7955 120.889 54.1849 122.159 56.684 124.42C59.183 126.681 60.587 129.748 60.587 132.946V133.655H57.1369C56.9964 133.655 56.858 133.625 56.7331 133.566C56.6081 133.508 56.5003 133.424 56.4185 133.321L55.7919 132.527C55.7454 132.468 55.6784 132.425 55.6016 132.404C55.5247 132.384 55.4425 132.387 55.3678 132.413C55.2931 132.439 55.2302 132.487 55.1891 132.55C55.1481 132.612 55.1312 132.685 55.1411 132.757C55.1567 132.869 55.1457 132.983 55.1088 133.092C55.0719 133.2 55.0099 133.3 54.9271 133.385C54.8442 133.47 54.7423 133.538 54.6282 133.584C54.514 133.631 54.3902 133.655 54.265 133.655H33.9355V132.946Z" fill="#2F2E41"/>
<path d="M376.788 300.09H122.731C120.526 300.087 118.411 299.294 116.851 297.883C115.292 296.471 114.415 294.558 114.412 292.563V156.185C114.415 154.189 115.292 152.276 116.851 150.865C118.411 149.454 120.526 148.66 122.731 148.658C124.682 148.66 126.552 149.362 127.932 150.61C129.311 151.858 130.087 153.55 130.089 155.315V283.579C130.092 285.449 130.914 287.242 132.376 288.565C133.837 289.887 135.819 290.631 137.886 290.633H375.93C377.112 290.621 378.265 290.968 379.205 291.618C380.144 292.269 380.815 293.185 381.111 294.221C381.443 295.203 381.402 296.258 380.994 297.216C380.586 298.175 379.835 298.982 378.861 299.509C378.243 299.873 377.525 300.074 376.788 300.09Z" fill="#F2F2F2"/>
</g>
<defs>
<clipPath id="clip0_71_607">
<rect width="400" height="306" fill="white"/>
</clipPath>
</defs>
</svg>
