<svg width="322" height="300" viewBox="0 0 322 300" fill="none" xmlns="http://www.w3.org/2000/svg">
<g clip-path="url(#clip0_50_2579)">
<path d="M134.576 238.75C134.595 241.283 135.548 243.704 137.225 245.482C138.902 247.26 141.166 248.25 143.521 248.234L295.922 247.059C298.277 247.039 300.528 246.015 302.18 244.211C303.833 242.407 304.752 239.971 304.735 237.439C304.718 234.906 303.767 232.485 302.09 230.706C300.414 228.928 298.15 227.938 295.795 227.955L143.393 229.13C141.039 229.15 138.788 230.175 137.135 231.978C135.482 233.782 134.562 236.218 134.576 238.75Z" fill="#F2F2F2"/>
<path d="M152.857 236.466C152.857 236.305 152.916 236.151 153.021 236.037C153.126 235.923 153.269 235.858 153.419 235.858L192.783 235.706C192.857 235.706 192.93 235.721 192.998 235.752C193.067 235.782 193.129 235.826 193.182 235.882C193.234 235.938 193.276 236.005 193.305 236.079C193.333 236.152 193.348 236.231 193.348 236.31C193.348 236.39 193.334 236.469 193.306 236.542C193.278 236.616 193.237 236.683 193.185 236.74C193.132 236.796 193.07 236.841 193.002 236.872C192.934 236.902 192.861 236.918 192.787 236.919L153.423 237.07C153.274 237.07 153.13 237.007 153.024 236.894C152.918 236.781 152.858 236.627 152.857 236.466Z" fill="#CCCCCC"/>
<path d="M152.903 242.023C152.903 241.862 152.962 241.708 153.067 241.594C153.172 241.48 153.315 241.415 153.465 241.415L254.814 240.768C254.888 240.767 254.962 240.783 255.03 240.813C255.099 240.843 255.161 240.887 255.214 240.943C255.266 240.999 255.308 241.066 255.337 241.139C255.366 241.212 255.381 241.291 255.381 241.371C255.381 241.45 255.367 241.529 255.339 241.603C255.311 241.677 255.27 241.744 255.218 241.8C255.166 241.857 255.104 241.902 255.036 241.933C254.968 241.964 254.895 241.98 254.821 241.98H254.818L153.469 242.627C153.319 242.627 153.176 242.564 153.07 242.451C152.964 242.338 152.904 242.184 152.903 242.023Z" fill="#CCCCCC"/>
<path d="M134.576 202.391C134.595 204.923 135.548 207.344 137.225 209.122C138.902 210.9 141.166 211.89 143.521 211.874L295.922 210.699C298.277 210.68 300.528 209.656 302.18 207.852C303.833 206.048 304.752 203.612 304.735 201.079C304.718 198.547 303.767 196.125 302.09 194.347C300.414 192.568 298.15 191.579 295.795 191.596L143.393 192.77C141.039 192.791 138.788 193.815 137.135 195.619C135.482 197.423 134.562 199.858 134.576 202.391Z" fill="#F2F2F2"/>
<path d="M151.184 205.663C151.184 205.503 151.243 205.348 151.348 205.234C151.453 205.12 151.596 205.056 151.746 205.055L253.095 204.408C253.169 204.408 253.243 204.424 253.311 204.454C253.38 204.484 253.442 204.528 253.494 204.584C253.547 204.641 253.589 204.707 253.617 204.781C253.646 204.854 253.661 204.933 253.661 205.012C253.661 205.092 253.647 205.171 253.619 205.245C253.591 205.318 253.549 205.385 253.497 205.442C253.445 205.498 253.383 205.543 253.315 205.574C253.246 205.605 253.173 205.62 253.099 205.621L151.75 206.267C151.6 206.268 151.457 206.204 151.351 206.091C151.245 205.978 151.185 205.824 151.184 205.663Z" fill="#CCCCCC"/>
<path d="M151.184 199.501C151.184 199.34 151.243 199.186 151.348 199.072C151.453 198.958 151.596 198.893 151.746 198.893L253.095 198.246C253.169 198.246 253.243 198.261 253.311 198.291C253.38 198.321 253.442 198.366 253.494 198.422C253.547 198.478 253.589 198.545 253.617 198.618C253.646 198.691 253.661 198.77 253.661 198.85C253.661 198.929 253.647 199.008 253.619 199.082C253.591 199.156 253.549 199.223 253.497 199.279C253.445 199.336 253.383 199.38 253.315 199.411C253.246 199.442 253.173 199.458 253.099 199.458L151.75 200.105C151.6 200.105 151.457 200.042 151.351 199.929C151.245 199.815 151.185 199.662 151.184 199.501Z" fill="#CCCCCC"/>
<path d="M179.18 280.896L26.778 279.721C24.4235 279.704 22.1591 280.694 20.4827 282.472C18.8063 284.251 17.8551 286.672 17.8382 289.205C17.8214 291.737 18.7402 294.173 20.3927 295.977C22.0452 297.781 24.2962 298.806 26.6507 298.825L179.052 300C181.407 300.017 183.671 299.027 185.348 297.249C187.024 295.47 187.975 293.049 187.992 290.516C188.009 287.984 187.09 285.548 185.438 283.744C183.785 281.94 181.534 280.916 179.18 280.896Z" fill="#F2F2F2"/>
<path d="M74.6125 288.836L35.2488 288.685C35.1748 288.684 35.1016 288.669 35.0333 288.638C34.965 288.607 34.9031 288.562 34.8509 288.506C34.7988 288.449 34.7575 288.382 34.7294 288.309C34.7013 288.235 34.687 288.156 34.6873 288.076C34.6875 287.997 34.7024 287.918 34.7309 287.845C34.7595 287.771 34.8012 287.705 34.8537 287.648C34.9063 287.592 34.9685 287.548 35.037 287.518C35.1055 287.488 35.1788 287.472 35.2528 287.472L74.6165 287.624C74.6907 287.624 74.7641 287.64 74.8325 287.67C74.901 287.701 74.9632 287.746 75.0155 287.802C75.0678 287.859 75.1092 287.926 75.1374 288C75.1656 288.073 75.1799 288.152 75.1797 288.232C75.1794 288.312 75.1645 288.391 75.1359 288.464C75.1072 288.538 75.0653 288.605 75.0126 288.661C74.96 288.717 74.8975 288.761 74.8288 288.791C74.7602 288.821 74.6867 288.837 74.6125 288.836Z" fill="#CCCCCC"/>
<path d="M137.019 294.393L35.6694 293.746C35.5954 293.746 35.5221 293.73 35.4538 293.699C35.3856 293.669 35.3236 293.624 35.2714 293.567C35.2193 293.511 35.178 293.444 35.1499 293.37C35.1218 293.296 35.1075 293.218 35.1078 293.138C35.1081 293.058 35.1229 292.98 35.1515 292.906C35.18 292.833 35.2217 292.766 35.2743 292.71C35.3268 292.654 35.3891 292.609 35.4575 292.579C35.526 292.549 35.5994 292.534 35.6734 292.534L137.023 293.181C137.097 293.181 137.17 293.197 137.239 293.228C137.307 293.258 137.369 293.303 137.421 293.36C137.473 293.416 137.514 293.483 137.542 293.557C137.571 293.631 137.585 293.709 137.585 293.789C137.584 293.869 137.569 293.947 137.541 294.021C137.512 294.094 137.471 294.161 137.418 294.217C137.366 294.273 137.303 294.318 137.235 294.348C137.166 294.378 137.093 294.393 137.019 294.393Z" fill="#CCCCCC"/>
<path d="M317.989 205.932C320.204 205.932 322 204.001 322 201.618C322 199.236 320.204 197.305 317.989 197.305C315.774 197.305 313.979 199.236 313.979 201.618C313.979 204.001 315.774 205.932 317.989 205.932Z" fill="#BDFF8A"/>
<path d="M317.989 242.292C320.204 242.292 322 240.36 322 237.978C322 235.596 320.204 233.664 317.989 233.664C315.774 233.664 313.979 235.596 313.979 237.978C313.979 240.36 315.774 242.292 317.989 242.292Z" fill="#BDFF8A"/>
<path d="M137.926 265.289L27.6631 283.055C26.7646 283.201 25.8483 283.154 24.9665 282.919C24.0846 282.683 23.2546 282.263 22.5238 281.682C21.7931 281.101 21.1758 280.371 20.7074 279.534C20.2391 278.697 19.9287 277.768 19.7941 276.801C19.6595 275.835 19.7033 274.849 19.9229 273.901C20.1426 272.953 20.5339 272.06 21.0744 271.275C21.6148 270.489 22.2939 269.826 23.0729 269.322C23.8518 268.819 24.7153 268.486 25.614 268.342L135.877 250.576C136.775 250.431 137.691 250.477 138.573 250.713C139.455 250.948 140.285 251.368 141.016 251.949C141.747 252.53 142.364 253.26 142.832 254.097C143.301 254.935 143.611 255.863 143.746 256.83C143.88 257.796 143.836 258.782 143.617 259.73C143.397 260.679 143.006 261.571 142.465 262.357C141.925 263.142 141.246 263.806 140.467 264.309C139.688 264.812 138.824 265.145 137.926 265.289Z" fill="#6C63FF"/>
<path d="M61.2078 269.532L32.7443 274.231C32.6362 274.249 32.5259 274.22 32.4378 274.15C32.3496 274.081 32.2908 273.976 32.2742 273.86C32.2576 273.744 32.2846 273.625 32.3493 273.53C32.414 273.436 32.5111 273.372 32.6192 273.354L61.0827 268.656C61.1908 268.638 61.301 268.667 61.3892 268.737C61.4774 268.806 61.5362 268.911 61.5528 269.027C61.5694 269.143 61.5424 269.262 61.4777 269.357C61.413 269.451 61.3159 269.515 61.2078 269.532Z" fill="#FFE98A"/>
<path d="M106.895 265.926L33.5825 277.838C33.4744 277.855 33.3642 277.826 33.276 277.757C33.1879 277.687 33.129 277.583 33.1124 277.466C33.0959 277.35 33.1229 277.232 33.1876 277.137C33.2523 277.042 33.3493 276.979 33.4574 276.961L106.77 265.049C106.823 265.04 106.878 265.042 106.931 265.056C106.983 265.07 107.033 265.095 107.077 265.129C107.12 265.164 107.157 265.207 107.186 265.257C107.214 265.307 107.232 265.362 107.241 265.42C107.249 265.478 107.247 265.536 107.234 265.593C107.221 265.65 107.197 265.703 107.165 265.75C107.133 265.797 107.093 265.837 107.046 265.867C107 265.897 106.948 265.917 106.895 265.926Z" fill="#FFE98A"/>
<path d="M112.312 256.347C111.884 256.321 111.467 256.194 111.089 255.977C110.712 255.76 110.382 255.457 110.124 255.09C109.865 254.722 109.684 254.299 109.593 253.849C109.502 253.399 109.503 252.932 109.596 252.483L97.6113 243.251L99.1703 239.058L113.33 250.134C114.022 250.359 114.614 250.848 114.993 251.51C115.372 252.173 115.512 252.961 115.387 253.727C115.261 254.493 114.879 255.183 114.312 255.666C113.745 256.149 113.034 256.391 112.312 256.347Z" fill="#A0616A"/>
<path d="M80.1154 204.731L72.9139 207.566C72.5975 207.69 72.3069 207.881 72.0589 208.126C71.8108 208.371 71.6101 208.667 71.4683 208.996C71.3264 209.324 71.2461 209.68 71.232 210.042C71.2179 210.404 71.2702 210.766 71.386 211.106C71.4143 211.189 71.4462 211.271 71.4819 211.351L81.3006 233.382L104.958 251.721L108.584 245.507L90.6634 227.955L80.1154 204.731Z" fill="#3F3D56"/>
<path d="M77.1543 250.293C68.9474 249.472 60.9082 247.435 52.6887 246.749L55.9874 237.719L72.8455 240.42L77.1543 250.293Z" fill="#A0616A"/>
<path d="M49.3103 252.416L49.2391 253.092L48.6523 258.525L47.9648 258.57L47.9272 265.373C48.1433 266.046 48.1421 266.778 47.9239 267.451C47.7056 268.123 47.283 268.697 46.7242 269.079C46.6316 269.143 46.5349 269.2 46.435 269.25C46.017 265.719 46.143 262.138 46.808 258.651C47.075 257.354 47.4684 256.091 47.9817 254.882C48.2402 254.284 48.5343 253.704 48.8619 253.146C49.0002 252.899 49.1511 252.655 49.3103 252.416Z" fill="#2F2E41"/>
<path d="M49.4403 251.244L49.3104 252.412V252.416L49.2391 253.092C49.0547 253.119 48.9248 253.137 48.8619 253.147C48.8466 253.149 48.8312 253.151 48.8158 253.151L49.4403 251.244Z" fill="#6C63FF"/>
<path d="M79.2835 228.856L77.8667 237.719C77.8667 237.719 81.3079 246.06 78.9398 248.138C78.6501 248.417 78.4273 248.767 78.2901 249.159C78.1529 249.551 78.1055 249.972 78.1518 250.388C77.8164 250.356 77.4853 250.324 77.1542 250.293C68.9473 249.472 60.9081 247.435 52.6886 246.749C52.106 246.7 51.5276 246.655 50.945 246.623L53.4766 238.878L51.7665 231.994L49.9935 224.853L49.6121 213.095C49.603 212.873 49.6044 212.65 49.6163 212.428C49.6163 212.311 49.6205 212.198 49.6289 212.081C49.7211 210.596 50.1213 209.152 50.8002 207.855C51.4791 206.559 52.4194 205.442 53.5521 204.588C53.5553 204.587 53.5582 204.586 53.5605 204.583C53.9467 204.292 54.3531 204.033 54.776 203.808C55.2303 203.566 55.7028 203.365 56.1885 203.208L56.6747 203.051L59.3069 198.47L62.3584 198.127L63.49 198.001L70.8628 197.176L72.4514 199.394L72.7406 199.8L73.8597 201.36L77.347 203.357C78.1093 203.792 78.8059 204.348 79.4134 205.007C80.8393 206.54 81.7241 208.56 81.9157 210.719C81.9619 211.216 81.9703 211.717 81.9408 212.216L79.2835 228.856Z" fill="#3F3D56"/>
<path d="M43.3953 188.939C43.3196 192.443 44.537 195.836 46.286 198.816C46.8702 197.085 47.6884 195.457 48.7141 193.983C48.223 197.248 48.7461 200.597 50.2025 203.51C50.2538 203.549 50.307 203.586 50.3618 203.62C51.061 204.108 51.8544 204.418 52.6818 204.527C53.5091 204.636 54.3487 204.541 55.1369 204.25C53.58 202.354 52.6463 199.96 52.4799 197.438C52.3136 194.915 52.9238 192.403 54.2164 190.291C54.9727 189.115 55.9509 188.075 56.4193 186.737C57.159 184.602 56.448 182.251 55.9995 180.025C55.5801 177.954 55.5067 175.488 56.7989 173.97C56.6608 173.758 56.4728 173.589 56.2541 173.481C56.0355 173.372 55.7939 173.328 55.5543 173.354C55.1648 173.46 54.8039 173.663 54.5007 173.947C54.1974 174.23 53.9603 174.586 53.8083 174.987C53.5103 175.788 53.1322 176.553 52.6806 177.267C51.7274 178.507 50.104 178.8 48.736 179.454C45.423 181.041 43.4747 185.04 43.3953 188.939Z" fill="#2F2E41"/>
<path d="M71.2829 186.936C71.0936 186.223 72.3985 190.58 71.7688 190.658C68.9008 191.012 64.9638 192.855 62.9663 193.714C62.8764 193.703 62.7864 193.692 62.6991 193.678C62.4848 193.652 62.2758 193.616 62.0694 193.574C57.4182 192.627 55.6296 184.942 55.6296 184.872C55.6296 184.527 56.4005 175.038 57.6149 174.897C57.9339 174.86 58.2545 174.841 58.5753 174.841H61.5888C62.2124 174.697 62.8444 174.598 63.4805 174.546H63.4858C69.5524 174.049 74.3359 178.026 73.8888 182.866C73.8861 182.871 73.8808 182.877 73.8782 182.883C73.7485 183.091 73.6348 183.287 73.5342 183.475C73.4363 183.652 73.3543 183.821 73.2829 183.981C72.7299 185.217 74.1513 186.772 73.2088 187.062C71.9553 187.448 76.5056 200.137 71.544 200.137C73.9575 200.875 71.8052 188.902 71.2829 186.936Z" fill="#2F2E41"/>
<path d="M65.8675 194.381C69.8079 194.381 73.0022 190.945 73.0022 186.707C73.0022 182.469 69.8079 179.033 65.8675 179.033C61.927 179.033 58.7327 182.469 58.7327 186.707C58.7327 190.945 61.927 194.381 65.8675 194.381Z" fill="#A0616A"/>
<path d="M73.8889 183.284C73.7699 183.352 73.6534 183.414 73.5344 183.475C73.41 183.54 73.2857 183.605 73.1613 183.664C70.7722 184.829 68.8276 184.958 67.6476 183.284C67.616 182.404 67.4321 181.537 67.1053 180.728C67.163 181.632 66.9416 182.53 66.4756 183.284H64.0997C61.6524 185.031 60.3957 185.214 62.0943 190.949C62.5679 192.548 64.4509 201.847 63.7101 203.226C63.4958 203.201 61.2159 193.015 61.0095 192.973C56.3583 192.026 53.4031 183.784 53.7814 183.318C53.7796 181.992 54.063 180.684 54.6095 179.495C55.3009 177.99 56.3788 176.728 57.7156 175.861C58.5124 175.445 59.3432 175.11 60.1973 174.858C60.2185 174.852 60.237 174.847 60.2581 174.841C60.5201 174.765 60.7873 174.695 61.0545 174.636C61.6065 174.511 62.1648 174.42 62.7266 174.364C62.7663 174.361 62.806 174.358 62.843 174.358C63.0673 174.359 63.2874 174.424 63.4806 174.546C63.4833 174.546 63.4833 174.549 63.4859 174.549C63.624 174.636 63.7445 174.751 63.8404 174.889C64.0094 175.12 64.1008 175.406 64.0997 175.701H66.7455C66.8433 175.701 66.9412 175.704 67.0391 175.709C68.8049 175.774 70.4847 176.545 71.7496 177.872C73.0145 179.199 73.7736 180.986 73.8783 182.883C73.8863 183.017 73.8889 183.15 73.8889 183.284Z" fill="#2F2E41"/>
<path d="M58.2891 180.831C60.885 180.831 62.9895 178.568 62.9895 175.775C62.9895 172.983 60.885 170.72 58.2891 170.72C55.6931 170.72 53.5886 172.983 53.5886 175.775C53.5886 178.568 55.6931 180.831 58.2891 180.831Z" fill="#2F2E41"/>
<path d="M46.7242 269.079C46.6315 269.143 46.5349 269.2 46.435 269.25C46.0873 269.434 45.7093 269.543 45.3225 269.57C44.9357 269.597 44.5478 269.542 44.1808 269.408C43.8138 269.274 43.475 269.063 43.1836 268.788C42.8923 268.514 42.6542 268.179 42.4829 267.806C42.3116 267.432 42.2104 267.025 42.1852 266.609C42.16 266.193 42.2112 265.776 42.3359 265.381C42.4606 264.986 42.6564 264.622 42.9121 264.308C43.1677 263.995 43.4782 263.739 43.8259 263.555C43.8762 263.528 43.9272 263.503 43.9788 263.479L43.9704 258.84L43.962 253.381L43.9536 247.624L48.0277 246.542L47.9816 254.882L47.9648 258.57L47.9271 265.373C48.1433 266.046 48.1421 266.778 47.9239 267.45C47.7056 268.123 47.2829 268.697 46.7242 269.079Z" fill="#A0616A"/>
<path d="M62.8278 209.867L62.4045 210.719L51.7665 231.994L51.448 232.629L49.9432 246.573L49.4403 251.244L49.3103 252.412V252.416L49.2391 253.092L48.6523 258.525L47.9648 258.57L46.808 258.651L43.9704 258.84L41.8453 258.985L41.8495 255.328L41.8872 227.621L49.6163 212.428L49.8049 212.053L52.7892 206.188C53.117 205.545 53.6688 205.068 54.3234 204.863C54.978 204.657 55.6816 204.74 56.2796 205.092C56.3504 205.134 56.4192 205.179 56.4861 205.228L62.8278 209.867Z" fill="#3F3D56"/>
<path d="M4.01068 291.593C6.22571 291.593 8.02135 289.662 8.02135 287.279C8.02135 284.897 6.22571 282.965 4.01068 282.965C1.79564 282.965 0 284.897 0 287.279C0 289.662 1.79564 291.593 4.01068 291.593Z" fill="#BDFF8A"/>
<path d="M278.987 130.926C278.987 130.926 277.533 147.485 276.728 159.743V159.752C276.665 160.739 276.606 161.693 276.552 162.615L276.125 162.655C275.831 162.687 275.542 162.723 275.248 162.754C270.562 163.291 265.922 164.179 261.266 164.95C260.817 165.022 260.369 165.094 259.92 165.166C255.275 165.982 250.577 166.392 245.87 166.393H245.782C245.82 165.761 245.879 164.936 245.946 163.99C246.34 158.629 247.136 149.338 247.136 149.338L247.878 143.959L250.305 126.341L250.322 126.206L250.343 126.052L250.46 126.021L255.557 124.596L258.298 123.834L259.891 121.472L262.012 118.325L270.831 119.493L271.476 122.081L272.671 126.85L272.708 127.004L277.336 129.893L278.987 130.926Z" fill="#BDFF8A"/>
<path d="M266.399 117.306C271.561 117.306 275.745 112.805 275.745 107.254C275.745 101.702 271.561 97.2013 266.399 97.2013C261.237 97.2013 257.053 101.702 257.053 107.254C257.053 112.805 261.237 117.306 266.399 117.306Z" fill="#FFB6B6"/>
<path d="M256.606 101.17C257.427 101.883 257.239 105.352 258.153 104.787C259.068 104.221 259.258 103.209 260.311 103.198C261.169 103.249 261.979 103.643 262.581 104.303C262.693 104.412 262.8 104.527 262.903 104.639C262.998 104.604 263.092 104.571 263.19 104.545C263.928 104.351 264.708 104.469 265.368 104.875C264.758 104.922 264.178 105.173 263.709 105.594C263.91 105.836 264.114 106.08 264.328 106.305C266.118 108.192 269.788 106.183 272.256 105.729C270.201 108.143 270.606 109.491 271.117 112.717L271.119 112.893C271.224 112.149 273.44 112.186 273.075 113.173C272.616 114.149 272.042 115.056 271.367 115.873C274.386 113.624 276.823 110.523 277.361 106.778C277.558 106.01 277.599 105.206 277.479 104.42C277.39 104.031 277.184 103.686 276.894 103.436C276.603 103.187 276.244 103.049 275.873 103.042C276.209 101.893 276.249 100.668 275.99 99.4963C275.73 98.3247 275.18 97.2506 274.399 96.3882C273.617 95.5258 272.633 94.9074 271.55 94.5987C270.468 94.2899 269.328 94.3024 268.252 94.6349C267.27 95.0102 266.312 95.4548 265.385 95.9657C264.449 96.4787 263.39 96.6717 262.349 96.5189C261.7 96.3748 261.044 96.0137 260.408 96.2182C259.672 96.4557 259.355 97.2922 259.06 98.0998C259.614 98.3174 260.095 98.7078 260.442 99.221C259.869 98.9937 259.244 98.9664 258.656 99.143C258.646 99.1451 258.635 99.1481 258.625 99.1522C257.958 100.437 257.919 100.752 256.606 101.17Z" fill="#2F2E41"/>
<path d="M261.266 164.95C260.817 165.022 260.369 165.094 259.92 165.166C255.276 165.982 250.577 166.392 245.871 166.393C245.904 165.595 245.925 164.792 245.946 163.99C245.975 162.867 245.996 161.74 246.017 160.613C246.114 155.505 246.21 150.399 246.306 145.294C246.311 145.05 246.315 144.802 246.319 144.559C246.415 139.397 246.545 134.064 248.536 129.361C248.991 128.29 249.558 127.278 250.225 126.345C250.259 126.296 250.288 126.251 250.322 126.206C250.368 126.142 250.414 126.079 250.46 126.021C250.995 125.304 251.59 124.641 252.237 124.042C253.238 123.05 254.413 122.283 255.692 121.785C256.972 121.288 258.331 121.069 259.69 121.143L259.891 121.472L260.159 121.918C259.983 123.329 259.803 124.745 259.635 126.161C258.91 132.296 258.39 138.468 258.973 144.608C259.468 149.77 260.738 154.824 261.14 159.991C261.157 160.162 261.169 160.338 261.182 160.509C261.281 161.987 261.309 163.469 261.266 164.95Z" fill="#3F3D56"/>
<path d="M276.124 162.652C276.33 161.691 276.525 160.723 276.731 159.75V159.743C277.527 155.898 278.326 152.052 279.126 148.207C280.174 143.166 281.223 137.952 280.323 132.88C280.232 132.359 280.115 131.842 279.974 131.334C279.928 131.167 279.876 131.001 279.825 130.834C279.464 129.666 278.973 128.549 278.364 127.507C276.771 124.77 274.387 122.644 271.477 122.084C271.423 122.066 271.367 122.054 271.311 122.047L270.675 122.681C270.543 123.994 270.417 125.319 270.279 126.638C269.626 132.88 268.773 139.117 266.819 145.021C265.146 150.074 262.693 154.801 261.164 159.904C261.158 159.934 261.147 159.965 261.141 159.99C260.636 161.687 260.229 163.416 259.92 165.166C260.367 165.093 260.82 165.025 261.267 164.951C265.925 164.18 270.56 163.293 275.247 162.757L276.124 162.652Z" fill="#3F3D56"/>
<path d="M285.228 105.139L284.959 102.371L284.897 101.73L284.8 100.702L282.73 79.3376C282.901 78.7213 282.877 78.0614 282.663 77.461C282.448 76.8606 282.054 76.3537 281.543 76.0196C280.953 75.6409 280.247 75.5299 279.581 75.7108C278.914 75.8917 278.342 76.3497 277.989 76.9843C277.976 77.0069 277.968 77.0294 277.956 77.0519C277.604 77.7122 277.505 78.4941 277.68 79.2315C277.855 79.9689 278.291 80.6037 278.894 81.0012C279.019 81.0782 279.15 81.1445 279.284 81.1996L279.267 81.7992L279.217 83.6792L279.179 85.0993L279.1 87.926L279.07 89.0215L278.974 92.574L278.882 96.0003L278.769 100.152L278.681 103.344L279.749 103.637L285.228 105.139Z" fill="#FFB6B6"/>
<path d="M287.298 109.687C287.254 109.317 287.171 108.952 287.051 108.601C286.51 107.591 286.179 109.002 286.477 106.297C286.716 104.102 285.282 104.377 285.798 103.908C286.649 103.132 285.475 102.79 284.959 102.371C284.729 102.186 284.633 101.987 284.897 101.73C285.02 101.614 285.159 101.517 285.307 101.442C285.869 101.126 285.546 100.887 284.8 100.702C283.122 100.402 281.425 100.231 279.724 100.193C279.314 100.17 278.978 100.161 278.769 100.152C278.614 100.148 278.526 100.148 278.526 100.148C278.233 100.446 278.05 100.848 278.01 101.28C277.886 102.196 277.952 103.13 278.203 104.016C278.375 104.631 278.604 105.226 278.886 105.792C278.994 106.005 279.043 106.245 279.029 106.487V106.491C278.999 106.634 278.94 106.767 278.857 106.883C278.773 106.998 278.667 107.092 278.546 107.158C277.981 107.564 278.295 108.416 278.735 109.219C279.109 109.756 279.427 110.337 279.682 110.95C279.682 111.504 276.195 123.289 276.195 123.289L277.478 141.083C278.429 141.872 279.629 142.23 280.822 142.08C281.818 141.899 282.738 141.396 283.459 140.637C284.474 139.57 285.299 138.312 285.894 136.927C289.281 129.61 288.019 114.006 287.298 109.687Z" fill="#3F3D56"/>
<path d="M223.704 80.342C224.34 80.6755 224.829 81.2628 225.069 81.9789C225.309 82.6949 225.279 83.4833 224.986 84.1762C224.925 84.316 224.853 84.4501 224.77 84.5771L236.83 102.534L232.347 107.974L220.946 85.119C220.483 84.712 220.158 84.1515 220.022 83.5249C219.886 82.8984 219.946 82.241 220.194 81.6554C220.485 80.9854 221.011 80.4671 221.658 80.2145C222.304 79.962 223.017 79.9958 223.639 80.3087C223.661 80.3195 223.682 80.3306 223.704 80.342Z" fill="#FFB6B6"/>
<path d="M257.51 132.995C257.51 132.995 255.897 139.197 248.373 134.64C240.849 130.083 232.712 113.067 232.631 111.901C232.55 110.735 233.56 111.704 231.904 109.647C230.557 107.974 231.887 107.335 231.217 107.258C229.449 107.054 232.519 104.643 230.335 104.92C228.152 105.196 235.271 99.7539 235.271 99.7539C235.271 99.7539 236.568 99.7874 237.559 102.762C238.115 104.433 237.589 105.576 238.915 105.569C240.24 105.563 239.673 108.948 239.953 109.395C240.233 109.842 249.279 117.496 249.279 117.496L257.51 132.995Z" fill="#3F3D56"/>
<path d="M247.5 93.7725C271.574 93.7725 291.091 72.7808 291.091 46.8862C291.091 20.9917 271.574 0 247.5 0C223.425 0 203.908 20.9917 203.908 46.8862C203.908 72.7808 223.425 93.7725 247.5 93.7725Z" fill="#6C63FF"/>
<path d="M225.35 36.4523C225.803 37.3809 226.149 38.3655 226.381 39.3843C226.972 42.0631 226.557 44.4941 225.197 45.6343C225.061 45.7528 224.915 45.8563 224.759 45.9434C223.058 46.9001 220.712 45.8903 218.831 43.631C218.185 42.8452 217.631 41.9776 217.18 41.0474C216.73 40.1292 216.386 39.1545 216.157 38.1456C215.495 35.1871 216.06 32.5188 217.766 31.5592C220.025 30.2884 223.419 32.4822 225.35 36.4523Z" fill="#FFE98A"/>
<path d="M224.628 41.0312C225.318 42.4447 225.52 44.0758 225.197 45.6344C225.061 45.7528 224.915 45.8563 224.759 45.9434C223.058 46.9001 220.712 45.8904 218.831 43.631C218.185 42.8453 217.631 41.9777 217.18 41.0475C216.73 40.1292 216.386 39.1546 216.157 38.1456C217.637 37.3247 219.359 37.1673 220.946 37.7081C222.533 38.2489 223.857 39.4437 224.628 41.0312Z" fill="#3F3D56"/>
<path d="M242.272 26.9337C244.125 30.7454 243.956 34.8118 241.943 36.257C241.859 36.3183 241.772 36.3743 241.682 36.4247C239.427 37.6928 236.033 35.4989 234.103 31.5288C233.653 30.6124 233.31 29.6395 233.082 28.6325C232.417 25.6685 232.982 23.0002 234.688 22.0406C236.947 20.7698 240.342 22.9636 242.272 26.9337Z" fill="#FFE98A"/>
<path d="M241.382 31.6068C242.08 33.035 242.279 34.6847 241.943 36.257C241.859 36.3183 241.772 36.3743 241.682 36.4248C239.427 37.6928 236.033 35.4989 234.103 31.5288C233.653 30.6124 233.31 29.6395 233.083 28.6325C234.555 27.8749 236.243 27.7616 237.791 28.3165C239.339 28.8713 240.627 30.051 241.382 31.6068Z" fill="#3F3D56"/>
<path d="M223.212 63.3863C228.344 73.9423 238.301 79.2392 245.452 75.2172C252.602 71.1952 254.238 59.3774 249.105 48.8214C243.467 57.6631 234.929 62.6412 223.212 63.3863Z" fill="#FFE98A"/>
<path opacity="0.2" d="M286.18 25.2279C282.032 16.697 275.544 9.74564 267.596 5.31751C259.649 0.88938 250.627 -0.800992 241.755 0.475875C252.23 1.95848 261.848 7.4822 268.821 16.02C275.793 24.5577 279.646 35.5285 279.662 46.8924C279.679 58.2562 275.858 69.2399 268.91 77.801C261.963 86.3621 252.361 91.9181 241.89 93.4359C249.802 94.5539 257.847 93.3141 265.148 89.8517C272.449 86.3893 278.727 80.8373 283.296 73.8008C287.865 66.7644 290.55 58.5138 291.059 49.9486C291.567 41.3834 289.88 32.8324 286.18 25.2279Z" fill="black"/>
</g>
<defs>
<clipPath id="clip0_50_2579">
<rect width="322" height="300" fill="white"/>
</clipPath>
</defs>
</svg>
