<svg width="574" height="300" viewBox="0 0 574 300" fill="none" xmlns="http://www.w3.org/2000/svg">
<path d="M460.123 183.415C452.485 170.123 441.66 158.694 428.51 150.039C427.57 149.428 426.486 149.042 425.352 148.917C426.9 139.317 426.575 128.709 420.826 120.71C407.183 101.728 337.674 121.317 337.674 121.317C288.951 105.401 246.722 125.603 246.722 125.603C246.722 125.603 192.801 117.645 168.118 123.769C156.476 126.658 153.648 137.847 153.913 148.87H153.874C152.842 148.868 151.823 149.086 150.892 149.507C149.962 149.928 149.144 150.541 148.5 151.301C141.935 159.031 122.101 182.838 122.642 187.436C123.292 192.947 144.729 264.572 143.759 299.164L443.233 296.047C443.233 296.047 448.194 226.438 460.602 188.334C461.14 186.699 460.968 184.93 460.123 183.415Z" fill="#3F3D56"/>
<path opacity="0.1" d="M147.662 187.747L160.004 164.48L170.394 209.783L170.515 230.812L147.662 187.747Z" fill="black"/>
<path opacity="0.1" d="M430.891 187.747L418.55 164.48L404.234 207.435L406.99 231.851L430.891 187.747Z" fill="black"/>
<path d="M169.49 208.547L404.256 207.337L406.858 231.825L170.394 231.212L169.49 208.547Z" fill="#3F3D56"/>
<path opacity="0.1" d="M169.49 208.547L404.256 207.337L406.858 231.825L170.394 231.212L169.49 208.547Z" fill="black"/>
<path opacity="0.1" d="M402.321 229.44H175.184C171.997 229.44 169.413 231.875 169.413 234.879V250.328C169.413 253.332 171.997 255.767 175.184 255.767H402.321C405.509 255.767 408.093 253.332 408.093 250.328V234.879C408.093 231.875 405.509 229.44 402.321 229.44Z" fill="white"/>
<path d="M359.249 141.369C359.249 141.369 358.455 140.33 357.518 140.891C357.072 141.166 354.971 143.66 352.91 146.195C351.896 147.436 350.887 148.688 350.088 149.686C349.101 150.912 348.434 151.764 348.434 151.764L348.037 152.465L345.628 156.709L343.363 160.699L342.811 162.579L350.462 165.031L359.172 162.792L358.797 161.27L358.731 161.01L358.802 157.509L359.001 147.639L359.095 143.198V142.678L359.249 141.369Z" fill="#FFE98A"/>
<path d="M341.731 165.701C341.731 165.701 349.999 168.48 354.238 167.026C354.238 167.026 357.904 165.924 359.348 164.859C359.348 164.859 360.886 164.101 358.797 161.628C358.797 161.628 353.444 164.719 348.379 163.504L343.313 162.283L341.731 165.701Z" fill="#E7C4C3"/>
<path d="M350.954 162.185C352.243 161.472 352.77 160.06 352.129 159.031C351.489 158.001 349.925 157.744 348.635 158.456C347.345 159.168 346.819 160.58 347.459 161.61C348.099 162.639 349.664 162.897 350.954 162.185Z" fill="#FF7F8E"/>
<path d="M356.452 155.972C357.742 155.26 358.268 153.848 357.628 152.818C356.988 151.788 355.423 151.531 354.133 152.243C352.844 152.955 352.317 154.367 352.958 155.397C353.598 156.427 355.163 156.684 356.452 155.972Z" fill="#FF7F8E"/>
<path d="M358.797 157.509C358.382 157.346 357.931 157.278 357.482 157.311C357.034 157.345 356.6 157.478 356.217 157.701C354.927 158.413 354.398 159.826 355.043 160.854C355.688 161.883 357.248 162.143 358.532 161.431C358.62 161.379 358.709 161.327 358.791 161.27L358.725 161.01L358.797 157.509Z" fill="#FF7F8E"/>
<path d="M349.443 153.39C349.289 153.151 349.084 152.945 348.841 152.786C348.598 152.626 348.322 152.517 348.031 152.465L345.623 156.709C346.044 156.888 346.506 156.967 346.968 156.938C347.429 156.909 347.876 156.773 348.268 156.543C349.558 155.831 350.082 154.418 349.443 153.39Z" fill="#FF7F8E"/>
<path d="M354.8 147.171C354.601 146.871 354.324 146.624 353.995 146.453C353.666 146.282 353.296 146.193 352.921 146.195C351.907 147.436 350.898 148.688 350.099 149.686L350.132 149.748C350.771 150.787 352.336 151.031 353.626 150.319C354.916 149.608 355.429 148.2 354.8 147.171Z" fill="#FF7F8E"/>
<path d="M359.089 143.192C358.805 143.26 358.532 143.365 358.279 143.504C356.989 144.216 356.465 145.629 357.105 146.657C357.305 146.959 357.584 147.207 357.915 147.378C358.246 147.549 358.618 147.637 358.995 147.634L359.089 143.192Z" fill="#FF7F8E"/>
<path d="M346.251 160.226L345.81 159.525C346.47 159.339 347.08 159.02 347.596 158.589C347.629 158.558 347.657 158.522 347.684 158.491C348.235 157.836 348.12 159.197 348.12 159.197C348.12 159.197 346.764 160.283 346.251 160.226Z" fill="#94CC79"/>
<path d="M352.755 159.14L352.314 158.434C352.974 158.247 353.583 157.928 354.1 157.499C354.1 157.467 354.161 157.436 354.189 157.4C354.74 156.751 354.624 158.106 354.624 158.106C354.624 158.106 353.268 159.197 352.755 159.14Z" fill="#94CC79"/>
<path d="M352.16 156.231L351.719 155.525C352.378 155.339 352.988 155.022 353.505 154.595C353.533 154.558 353.566 154.527 353.593 154.496C354.145 153.842 354.029 155.197 354.029 155.197C354.029 155.197 352.673 156.278 352.16 156.231Z" fill="#94CC79"/>
<path d="M352.948 150.984L352.507 150.278C353.167 150.091 353.776 149.772 354.293 149.343C354.293 149.312 354.354 149.281 354.382 149.244C354.933 148.59 354.817 149.951 354.817 149.951C354.817 149.951 353.461 151.036 352.948 150.984Z" fill="#94CC79"/>
<path d="M356.68 144.636L356.245 143.93C356.903 143.744 357.511 143.425 358.025 142.995C358.057 142.964 358.087 142.931 358.113 142.896C358.665 142.247 358.554 143.603 358.554 143.603C358.554 143.603 357.193 144.688 356.68 144.636Z" fill="#94CC79"/>
<path d="M356.261 151.114L355.82 150.408C356.48 150.224 357.09 149.906 357.606 149.478C357.606 149.442 357.667 149.41 357.694 149.379C358.246 148.725 358.13 150.081 358.13 150.081C358.13 150.081 356.774 151.171 356.261 151.114Z" fill="#94CC79"/>
<path d="M340.375 163.504C340.375 163.504 339.317 166.101 341.731 165.685C342.805 164.512 343.54 163.096 343.864 161.576C343.864 161.576 349.084 150.797 350.628 149.81C350.628 149.81 357.43 141.047 358.163 140.917C358.163 140.917 358.4 140.065 356.024 141.868C353.648 143.67 348.445 150.61 348.445 150.61L343.484 158.231L342.315 161.27L340.375 163.504Z" fill="#E7C4C3"/>
<path opacity="0.2" d="M340.375 163.504C340.375 163.504 339.317 166.101 341.731 165.685C342.805 164.512 343.54 163.096 343.864 161.576C343.864 161.576 349.084 150.797 350.628 149.81C350.628 149.81 357.43 141.047 358.163 140.917C358.163 140.917 358.4 140.065 356.024 141.868C353.648 143.67 348.445 150.61 348.445 150.61L343.484 158.231L342.315 161.27L340.375 163.504Z" fill="white"/>
<path d="M258.38 216.266C259.29 219.084 260.41 221.837 261.732 224.505C265.528 223.757 269.262 222.754 272.905 221.503C273.021 221.466 270.816 218.749 270.585 218.526C269.687 217.591 268.617 216.816 267.426 216.24C266.263 215.763 264.83 216.126 263.567 216.188C261.848 216.272 260.119 216.298 258.38 216.266Z" fill="#FBBEBE"/>
<path d="M267.448 220.531C265.552 219.97 264.394 218.168 263.623 216.433C262.851 214.698 262.228 212.796 260.762 211.529C260.483 211.569 260.22 211.673 259.995 211.833C259.769 211.992 259.59 212.202 259.472 212.443C259.243 212.93 258.987 213.405 258.706 213.866C258.099 214.698 257.052 215.103 256.253 215.809C255.453 216.516 255.007 217.591 254.175 218.303C253.127 219.196 251.65 219.42 250.277 219.716C248.151 220.171 246.098 220.887 244.17 221.846C243.46 222.249 242.701 222.57 241.91 222.801C241.038 222.962 240.145 222.99 239.264 222.884L233.201 222.479C232.66 222.414 232.113 222.435 231.58 222.542C230.967 222.752 230.445 223.149 230.096 223.668C229.747 224.188 229.59 224.802 229.651 225.414C229.728 226.024 229.939 226.613 230.269 227.143C230.599 227.673 231.042 228.133 231.569 228.495C232.628 229.204 233.795 229.76 235.031 230.141C240.32 232.026 245.766 233.492 251.314 234.526V235.658C255.17 237.45 259.412 238.381 263.711 238.38C264.028 238.402 264.346 238.35 264.637 238.23C265.035 237.958 265.313 237.559 265.42 237.108C266.879 233.084 267.731 228.887 267.95 224.64C268.058 223.566 267.97 222.482 267.691 221.435C267.36 220.396 268.495 220.838 267.443 220.433" fill="#2F2E41"/>
<path d="M383.933 198.952C365.924 199.991 348.103 194.999 330.1 194.469C327.859 194.336 325.608 194.472 323.403 194.875C321.088 195.363 318.927 196.35 316.788 197.295C307.114 201.534 297.115 205.046 287.121 208.552L275.645 212.583C273.352 213.389 270.976 214.204 268.534 214.064C267.432 214.001 266.092 213.846 265.48 214.703C263.612 217.3 264.494 221.139 265.728 224.053C266.125 224.999 266.831 226.027 267.878 226.131C268.633 226.204 269.339 225.793 270.083 225.612C272.172 225.092 274.256 226.412 276.406 226.625C279.062 226.89 281.526 225.466 284.034 224.594C288.191 223.144 292.738 223.191 297.109 222.516C304.441 221.362 311.232 218.157 317.582 214.505C319.996 213.113 322.444 211.622 325.222 211.113C328.413 210.526 331.693 211.3 334.83 212.152C342.295 214.142 349.643 216.5 356.846 219.217C360.638 220.651 364.408 222.183 368.355 223.175C376.893 225.291 385.923 224.794 394.141 221.757C397.019 220.682 400.155 218.786 400.321 215.856C400.414 214.183 399.036 212.739 398.116 211.285C397.531 210.365 396.942 209.451 396.297 208.568C393.171 204.277 389.401 198.646 383.933 198.952Z" fill="#2F2E41"/>
<path opacity="0.1" d="M383.933 198.952C365.924 199.991 348.103 194.999 330.1 194.469C327.859 194.336 325.608 194.472 323.403 194.875C321.088 195.363 318.927 196.35 316.788 197.295C307.114 201.534 297.115 205.046 287.121 208.552L275.645 212.583C273.352 213.389 270.976 214.204 268.534 214.064C267.432 214.001 266.092 213.846 265.48 214.703C263.612 217.3 264.494 221.139 265.728 224.053C266.125 224.999 266.831 226.027 267.878 226.131C268.633 226.204 269.339 225.793 270.083 225.612C272.172 225.092 274.256 226.412 276.406 226.625C279.062 226.89 281.526 225.466 284.034 224.594C288.191 223.144 292.738 223.191 297.109 222.516C304.441 221.362 311.232 218.157 317.582 214.505C319.996 213.113 322.444 211.622 325.222 211.113C328.413 210.526 331.693 211.3 334.83 212.152C342.295 214.142 349.643 216.5 356.846 219.217C360.638 220.651 364.408 222.183 368.355 223.175C376.893 225.291 385.923 224.794 394.141 221.757C397.019 220.682 400.155 218.786 400.321 215.856C400.414 214.183 399.036 212.739 398.116 211.285C397.531 210.365 396.942 209.451 396.297 208.568C393.171 204.277 389.401 198.646 383.933 198.952Z" fill="black"/>
<path d="M292.953 217.092C295.768 217.996 298.612 218.829 301.486 219.591C303.09 217.108 306.094 215.378 306.778 212.542C306.807 212.479 306.821 212.411 306.82 212.343C306.819 212.275 306.802 212.207 306.771 212.146C306.741 212.084 306.696 212.029 306.641 211.984C306.587 211.94 306.522 211.907 306.453 211.887C304.399 210.816 302.12 210.186 299.777 210.043C297.925 209.934 297.082 211.752 296.239 213.035C295.902 213.55 293.708 217.336 292.953 217.092Z" fill="#FBBEBE"/>
<path d="M296.922 215.279C296.08 215.145 295.277 214.848 294.564 214.406C293.85 213.965 293.242 213.388 292.777 212.713C292.38 212.059 291.956 211.155 291.162 211.222C290.368 211.29 290.059 212.1 289.916 212.781C289.381 215.357 288.605 217.883 287.595 220.329C286.582 222.78 284.864 224.917 282.634 226.5C281.587 227.181 280.429 227.695 279.404 228.412C278.484 229.051 277.684 229.861 276.648 230.354C275.971 230.65 275.271 230.897 274.553 231.092C273.502 231.442 272.495 231.904 271.555 232.469C270.729 232.919 270.029 233.55 269.515 234.308C269.256 234.691 269.104 235.131 269.074 235.586C269.044 236.04 269.137 236.494 269.344 236.905C269.562 237.241 269.853 237.529 270.198 237.751C270.543 237.973 270.934 238.124 271.345 238.193C272.166 238.328 273.004 238.349 273.831 238.256C277.111 238.027 280.391 237.736 283.671 237.476C285.057 237.397 286.435 237.224 287.794 236.957C288.516 236.791 289.216 236.578 289.933 236.401C291.159 236.104 292.416 235.93 293.681 235.882C294.051 235.854 294.424 235.886 294.783 235.975C295.544 236.209 296.079 236.921 296.867 237.066C297.37 237.111 297.877 237.047 298.35 236.879C300.709 236.271 303.195 236.287 305.637 236.162C306.739 236.11 307.974 235.918 308.47 235.009C309.088 233.876 308.062 232.609 307.66 231.373C307.454 230.595 307.34 229.799 307.318 228.999C307.132 227.023 306.517 225.104 305.51 223.362C304.678 221.918 303.537 220.318 304.121 218.765C304.32 218.246 304.716 217.726 304.672 217.207C304.485 214.718 298.416 215.575 296.922 215.279Z" fill="#2F2E41"/>
<path d="M356.928 171.727C353.741 170.4 351.188 168.007 349.762 165.01C349.459 164.366 349.211 163.696 348.924 163.046C347.979 160.885 346.51 158.962 344.636 157.431C344.434 157.224 344.188 157.059 343.913 156.95C343.638 156.841 343.341 156.789 343.043 156.797C342.755 156.88 342.495 157.033 342.289 157.241C342.084 157.449 341.941 157.705 341.874 157.982C341.709 158.573 341.668 159.189 341.753 159.795C341.914 161.222 342.176 162.638 342.536 164.033L343.407 167.779C343.514 168.356 343.699 168.918 343.958 169.452C344.332 170.083 344.827 170.643 345.419 171.104C346.218 171.8 347.028 172.47 347.85 173.124C348.995 174.157 350.486 174.781 352.066 174.89C355.638 175.514 359.276 176.418 362.297 178.615C362.259 178.615 362.297 176.101 362.231 175.815C362.093 175.062 361.983 174.314 361.465 173.805C360.28 172.662 358.356 172.335 356.928 171.727Z" fill="#FBBEBE"/>
<path opacity="0.1" d="M356.928 171.727C353.741 170.4 351.188 168.007 349.762 165.01C349.459 164.366 349.211 163.696 348.924 163.046C347.979 160.885 346.51 158.962 344.636 157.431C344.434 157.224 344.188 157.059 343.913 156.95C343.638 156.841 343.341 156.789 343.043 156.797C342.755 156.88 342.495 157.033 342.289 157.241C342.084 157.449 341.941 157.705 341.874 157.982C341.709 158.573 341.668 159.189 341.753 159.795C341.914 161.222 342.176 162.638 342.536 164.033L343.407 167.779C343.514 168.356 343.699 168.918 343.958 169.452C344.332 170.083 344.827 170.643 345.419 171.104C346.218 171.8 347.028 172.47 347.85 173.124C348.995 174.157 350.486 174.781 352.066 174.89C355.638 175.514 359.276 176.418 362.297 178.615C362.259 178.615 362.297 176.101 362.231 175.815C362.093 175.062 361.983 174.314 361.465 173.805C360.28 172.662 358.356 172.335 356.928 171.727Z" fill="black"/>
<path d="M393.601 143.047C396.021 143.047 397.983 141.189 397.983 138.896C397.983 136.604 396.021 134.746 393.601 134.746C391.181 134.746 389.219 136.604 389.219 138.896C389.219 141.189 391.181 143.047 393.601 143.047Z" fill="#2F2E41"/>
<path d="M390.889 136.387C389.704 136.263 388.381 136.174 387.427 136.86C386.921 137.279 386.517 137.797 386.242 138.377C385.262 139.965 384.497 141.663 383.966 143.431C383.574 144.948 383.508 146.548 383.023 148.023C382.125 150.787 379.826 153.119 379.561 156.003C379.446 157.291 379.677 158.802 378.674 159.686C378.429 159.879 378.167 160.053 377.891 160.205C377.198 160.643 376.61 161.212 376.166 161.878C375.865 162.475 375.45 163.016 374.942 163.473C374.049 164.096 372.572 164.028 372.131 164.995C371.69 165.961 372.825 167.072 372.561 168.111C372.346 168.963 371.337 169.353 370.643 169.935C369.75 170.678 369.342 171.794 368.989 172.865C367.524 173.125 366.017 173.085 364.571 172.745C363.125 172.405 361.774 171.774 360.61 170.896C361.829 173.732 361.856 176.864 361.911 179.929C361.911 180.922 361.911 182.038 361.14 182.729C364.629 182.802 368.03 183.69 371.431 184.418C372.919 184.734 374.534 185.01 375.918 184.418C376.699 184.021 377.396 183.493 377.974 182.859C379.826 181.088 381.766 179.161 382.218 176.703C382.472 175.332 382.218 173.919 382.295 172.548C382.466 170.825 382.836 169.125 383.398 167.478C384.379 164.062 385.037 160.572 385.366 157.047C385.564 154.875 387.571 153.125 388.607 151.177C390.591 147.509 392.614 143.686 392.763 139.566C392.835 138.205 392.339 136.538 390.889 136.387Z" fill="#2F2E41"/>
<path opacity="0.1" d="M390.889 136.387C389.704 136.263 388.381 136.174 387.427 136.86C386.921 137.279 386.517 137.797 386.242 138.377C385.262 139.965 384.497 141.663 383.966 143.431C383.574 144.948 383.508 146.548 383.023 148.023C382.125 150.787 379.826 153.119 379.561 156.003C379.446 157.291 379.677 158.802 378.674 159.686C378.429 159.879 378.167 160.053 377.891 160.205C377.198 160.643 376.61 161.212 376.166 161.878C375.865 162.475 375.45 163.016 374.942 163.473C374.049 164.096 372.572 164.028 372.131 164.995C371.69 165.961 372.825 167.072 372.561 168.111C372.346 168.963 371.337 169.353 370.643 169.935C369.75 170.678 369.342 171.794 368.989 172.865C367.524 173.125 366.017 173.085 364.571 172.745C363.125 172.405 361.774 171.774 360.61 170.896C361.829 173.732 361.856 176.864 361.911 179.929C361.911 180.922 361.911 182.038 361.14 182.729C364.629 182.802 368.03 183.69 371.431 184.418C372.919 184.734 374.534 185.01 375.918 184.418C376.699 184.021 377.396 183.493 377.974 182.859C379.826 181.088 381.766 179.161 382.218 176.703C382.472 175.332 382.218 173.919 382.295 172.548C382.466 170.825 382.836 169.125 383.398 167.478C384.379 164.062 385.037 160.572 385.366 157.047C385.564 154.875 387.571 153.125 388.607 151.177C390.591 147.509 392.614 143.686 392.763 139.566C392.835 138.205 392.339 136.538 390.889 136.387Z" fill="black"/>
<path d="M386.771 202.526C383.023 200.843 380.278 197.711 377.246 195.025C371.458 189.903 364.375 186.277 358.29 181.472C354.255 178.293 350.65 174.584 346.218 171.919C342.317 169.583 337.898 168.125 333.303 167.659C332.776 167.571 332.236 167.596 331.721 167.732C331.14 167.974 330.633 168.352 330.249 168.828C328.285 170.917 326.539 173.178 325.034 175.581C317.317 187.919 306.359 198.308 297.28 209.773C296.994 210.046 296.824 210.409 296.803 210.792C296.783 211.175 296.914 211.553 297.17 211.851L299.017 215.259C300.047 217.17 301.707 219.414 303.934 219.014C304.953 218.838 305.764 218.131 306.513 217.456L314.782 209.991L323.474 202.158C328.568 197.571 333.744 192.875 337.068 187.01C339.658 191.249 344.267 194.023 347.425 197.919C348.627 199.394 349.63 201.035 350.677 202.594C352.397 205.098 354.354 207.451 356.305 209.799L366.277 221.794C367.633 223.425 369.033 225.097 370.891 226.204C373.255 227.612 376.127 227.986 378.905 228.219C382.651 228.535 386.412 228.663 390.172 228.604C393.039 228.557 395.993 228.38 398.568 227.18C401.142 225.98 403.253 223.544 403.121 220.801C402.963 219.392 402.471 218.034 401.682 216.827C398.143 210.646 393.485 205.529 386.771 202.526Z" fill="#2F2E41"/>
<path d="M396.297 144.964C398.157 144.964 399.665 143.533 399.665 141.769C399.665 140.005 398.157 138.574 396.297 138.574C394.436 138.574 392.929 140.005 392.929 141.769C392.929 143.533 394.436 144.964 396.297 144.964Z" fill="#E8E8F0"/>
<path d="M395.552 139.369C396.31 140.791 396.443 142.437 395.922 143.951C395.401 145.444 394.672 146.866 393.755 148.179C392.967 149.535 392.022 150.805 390.939 151.966C396.137 152.205 401.18 150.283 405.767 147.951C409.46 146.081 413.142 143.764 415.137 140.262C414.551 140.396 413.941 140.412 413.347 140.309C412.754 140.207 412.19 139.987 411.692 139.665C410.702 139.014 409.815 138.234 409.057 137.348L406.445 134.579C405.831 133.978 405.293 133.312 404.841 132.595C404.274 131.614 404.034 130.496 404.152 129.385C403.115 130.409 401.955 131.315 400.695 132.086C398.832 133.229 396.776 134.06 394.908 135.203C394.246 135.603 392.769 136.242 393.149 137.068C393.529 137.894 395.04 138.496 395.552 139.369Z" fill="#FBBEBE"/>
<path opacity="0.1" d="M395.552 139.369C396.31 140.791 396.443 142.437 395.922 143.951C395.401 145.444 394.672 146.866 393.755 148.179C392.967 149.535 392.022 150.805 390.939 151.966C396.137 152.205 401.18 150.283 405.767 147.951C409.46 146.081 413.142 143.764 415.137 140.262C414.551 140.396 413.941 140.412 413.347 140.309C412.754 140.207 412.19 139.987 411.692 139.665C410.702 139.014 409.815 138.234 409.057 137.348L406.445 134.579C405.831 133.978 405.293 133.312 404.841 132.595C404.274 131.614 404.034 130.496 404.152 129.385C403.115 130.409 401.955 131.315 400.695 132.086C398.832 133.229 396.776 134.06 394.908 135.203C394.246 135.603 392.769 136.242 393.149 137.068C393.529 137.894 395.04 138.496 395.552 139.369Z" fill="black"/>
<path d="M395.624 139.852C394.648 141.411 394.439 143.229 395.624 144.642C395.773 144.818 396.319 145.909 396.556 145.92C396.785 145.898 396.998 145.796 397.151 145.634C398.413 144.548 399.356 143.161 400.458 141.93C401.561 140.699 402.966 139.582 404.653 139.333C406.687 139.037 408.655 140.049 410.435 141.031C411.21 141.387 411.886 141.908 412.409 142.553C412.784 143.193 413.006 143.902 413.059 144.631C413.671 149 413.66 153.426 413.644 157.831C413.644 161.021 413.644 164.226 412.982 167.353C412.651 168.974 412.155 170.558 411.918 172.189C411.748 173.629 411.68 175.078 411.714 176.527V182.594C411.67 183.708 411.753 184.822 411.962 185.919C412.266 187.249 412.933 188.475 413.379 189.768C413.84 191.255 414.155 192.778 414.322 194.319L415.204 200.599C415.479 202.578 415.683 204.755 414.415 206.313C413.864 207.03 413.087 207.607 412.508 208.324C410.303 210.994 411.025 214.812 410.116 218.079C409.4 220.471 407.927 222.601 405.893 224.183C404.333 225.43 402.321 226.406 400.321 226.058C397.614 225.586 395.988 222.942 395.249 220.412C394.511 217.882 394.246 215.165 392.647 213.046C391.341 211.311 389.34 210.22 387.488 208.983C385.636 207.747 383.872 206.152 383.475 204.054C383.299 203.139 383.409 202.199 383.304 201.274C383.16 200.102 382.684 198.989 381.925 198.05C381.167 197.111 380.154 196.382 378.994 195.939C377.61 195.42 375.901 195.249 375.135 194.054C377.153 192.984 378.487 191.004 379.192 188.921C379.898 186.838 380.041 184.625 380.179 182.444L380.642 175.145C380.846 171.883 380.94 168.652 382.466 165.722C383.144 164.408 383.993 163.182 384.704 161.888C385.642 160.068 386.444 158.188 387.102 156.262C388.205 153.27 389.307 150.278 390.299 147.249C390.694 145.786 391.283 144.376 392.052 143.052C392.835 141.785 394.059 140.127 395.624 139.852Z" fill="#6C63FF"/>
<path d="M378.426 187.269L380.476 187.337L380.912 184.423C380.967 183.838 381.112 183.264 381.342 182.719C381.681 182.144 382.076 181.6 382.521 181.093C384.539 178.407 384.39 174.859 384.892 171.581C385.559 167.228 387.488 163.156 389.395 159.15L393.386 150.792C394.176 149.372 394.557 147.781 394.489 146.179C394.527 144.886 394.93 140.19 394.968 138.907C394.968 138.429 393.866 138.694 393.618 138.268C393.121 137.338 392.438 139.857 391.506 140.408C390.575 140.959 390.057 141.966 389.665 142.933C388.805 145.036 388.282 147.249 387.46 149.374C386.639 151.499 385.548 153.587 383.745 155.088C382.929 155.763 381.992 156.293 381.221 157.015C378.746 159.322 378.503 162.963 378.415 166.252C378.371 168.179 377.952 187.269 378.426 187.269Z" fill="#2F2E41"/>
<path d="M407.927 136.366C405.938 137.104 404.846 139.14 404.289 141.094C403.733 143.047 403.501 145.135 402.432 146.886C399.929 150.984 393.557 152.179 391.799 156.61C391.247 158.06 391.247 159.649 391.088 161.192C390.768 164.366 389.66 167.426 389.335 170.605C389.161 173.071 389.222 175.546 389.517 178.002L391.721 203.035C392.047 206.672 392.036 210.531 391.055 214.043C393.309 214.453 395.657 213.903 397.746 213.004C399.835 212.105 401.748 210.869 403.76 209.825C407.222 208.022 411.042 206.75 414.074 204.35C414.623 203.947 415.093 203.456 415.463 202.9C416.069 201.913 416.124 200.713 416.411 199.602C416.672 198.713 417.006 197.845 417.409 197.004C418.519 194.481 419.487 191.905 420.308 189.285C420.872 187.548 421.316 185.778 421.636 183.986C421.879 182.563 422.011 181.119 422.143 179.68C422.305 177.425 422.779 175.2 423.555 173.062C425.492 167.965 426.59 162.618 426.812 157.208C426.875 156.426 426.817 155.641 426.641 154.875C426.301 153.947 425.85 153.058 425.297 152.226C424.37 150.584 423.814 148.777 422.943 147.104C420.969 143.338 417.48 140.475 413.831 138.081C412.056 136.912 409.961 135.618 407.927 136.366Z" fill="#2F2E41"/>
<path d="M361.366 177.207C359.783 176.424 358.35 175.397 357.127 174.168C356.575 173.555 356.112 172.865 355.545 172.262C354.114 170.821 352.254 169.821 350.209 169.394C348.18 168.975 346.106 168.785 344.03 168.828C342.64 168.745 341.246 168.903 339.917 169.296C339.253 169.501 338.654 169.861 338.178 170.344C337.702 170.826 337.363 171.415 337.194 172.054C336.891 173.613 337.972 175.124 339.267 176.127C340.473 177.054 341.893 177.704 343.412 178.023C344.651 178.225 345.9 178.362 347.155 178.433C354.53 179.161 361.112 182.942 367.55 186.386C373.228 189.417 379.014 192.246 384.908 194.875C385.141 193.21 385.238 191.53 385.2 189.851C385.167 188.599 385.101 186.688 383.844 185.95C382.384 185.093 379.986 184.911 378.332 184.392C374.533 183.218 370.822 181.803 367.225 180.158C365.237 179.24 363.284 178.257 361.366 177.207Z" fill="#FBBEBE"/>
<path d="M406.656 128.929C408.511 122.278 404.325 115.477 397.306 113.738C390.287 111.999 383.093 115.98 381.237 122.631C379.382 129.282 383.568 136.084 390.587 137.823C397.606 139.562 404.8 135.58 406.656 128.929Z" fill="#FBBEBE"/>
<path d="M411.687 150.486C410.513 151.774 409.923 153.436 409.135 154.964C407.514 158.112 404.967 160.813 403.694 164.106C402.349 167.576 402.393 171.701 399.758 174.428C399.301 174.901 398.75 175.358 398.617 175.987C398.599 176.368 398.553 176.748 398.479 177.124C398.105 178.111 396.385 178.163 396.065 179.171C395.971 179.467 396.021 179.789 395.905 180.08C395.641 180.729 394.731 180.828 394.119 181.223C392.84 182.038 393.099 183.929 392.19 185.108C391.791 185.55 391.274 185.883 390.692 186.073C390.111 186.262 389.486 186.303 388.883 186.189C387.688 185.958 386.539 185.553 385.476 184.989C385.099 184.791 384.682 184.669 384.252 184.631C383.743 184.646 383.25 184.803 382.836 185.083C380.41 186.537 379.269 189.42 379.286 192.142C379.302 194.864 380.295 197.482 381.309 200.028C381.449 200.457 381.678 200.856 381.981 201.202C382.786 202.002 384.186 201.877 385.256 201.43C386.325 200.984 387.295 200.282 388.442 200.085C390.476 199.737 392.466 201.056 394.505 200.947C396.015 200.864 397.355 200.038 398.606 199.238C400.613 197.96 402.652 196.641 404.118 194.833C405.022 193.721 405.684 192.459 406.472 191.269C407.481 189.82 408.585 188.432 409.78 187.114L417.353 178.376C418.114 177.549 418.796 176.661 419.393 175.722C420.082 174.453 420.615 173.115 420.98 171.732C421.702 169.4 422.43 167.057 422.551 164.621C422.593 162.622 422.409 160.624 422 158.662C421.739 156.707 421.182 154.796 420.346 152.99C418.786 149.748 414.779 147.083 411.687 150.486Z" fill="#2F2E41"/>
<path d="M434.596 144.927C435.202 142.795 435.262 140.558 434.772 138.399C434.281 136.241 433.253 134.223 431.773 132.512C433.785 124.424 429.403 116.325 421.686 113.328C421.962 105.744 416.863 98.7827 409.008 96.8295C400.844 94.8088 392.471 98.871 388.949 106.092C383.988 103.666 378.74 103.925 377.009 106.777C375.201 109.759 377.919 114.45 383.073 117.25C384.697 118.145 386.475 118.765 388.326 119.084C389.121 121.202 390.377 123.141 392.015 124.775C393.653 126.408 395.635 127.701 397.834 128.569C397.699 131.636 398.473 134.677 400.07 137.352C401.667 140.027 404.023 142.229 406.875 143.712C407.186 145.843 408.022 147.877 409.316 149.649C409.165 150.021 409.036 150.401 408.931 150.787C407.31 156.579 410.816 162.47 416.752 163.94C422.689 165.41 428.819 161.909 430.434 156.117C430.868 154.573 430.943 152.958 430.654 151.384C432.559 149.605 433.921 147.374 434.596 144.927Z" fill="#3F3D56"/>
<path opacity="0.1" d="M380.41 108.284C382.141 105.432 387.383 105.167 392.35 107.598C395.861 100.377 404.245 96.31 412.409 98.336C412.778 98.4243 413.142 98.5334 413.511 98.6477C412.115 97.8361 410.599 97.2235 409.013 96.8295C400.85 94.8088 392.477 98.871 388.954 106.092C383.993 103.666 378.746 103.925 377.015 106.777C375.207 109.759 377.924 114.45 383.078 117.25C384.046 117.775 385.065 118.209 386.121 118.549C381.193 115.712 378.646 111.193 380.41 108.284Z" fill="black"/>
<path opacity="0.1" d="M412.337 152.293C412.443 151.908 412.571 151.528 412.723 151.156C411.429 149.381 410.593 147.346 410.281 145.213C407.43 143.732 405.073 141.53 403.476 138.856C401.879 136.182 401.105 133.141 401.241 130.076C399.042 129.207 397.059 127.915 395.422 126.281C393.784 124.648 392.527 122.709 391.732 120.59C390.653 120.409 389.598 120.118 388.585 119.723C389.427 121.699 390.678 123.498 392.265 125.014C393.852 126.53 395.743 127.733 397.829 128.554C397.693 131.62 398.467 134.661 400.064 137.336C401.661 140.011 404.018 142.214 406.869 143.696C407.181 145.828 408.017 147.861 409.311 149.634C409.159 150.006 409.03 150.386 408.925 150.771C407.31 156.543 410.788 162.413 416.692 163.909C414.799 162.619 413.368 160.817 412.59 158.742C411.812 156.667 411.724 154.417 412.337 152.293Z" fill="black"/>
<path d="M399.614 130.066C400.504 129.429 400.492 128.003 399.588 126.881C398.684 125.76 397.23 125.367 396.34 126.003C395.45 126.64 395.462 128.066 396.366 129.188C397.27 130.31 398.724 130.703 399.614 130.066Z" fill="#FBBEBE"/>
<path d="M238.018 20.436C242.977 20.436 246.998 16.6474 246.998 11.9738C246.998 7.30031 242.977 3.51166 238.018 3.51166C233.059 3.51166 229.039 7.30031 229.039 11.9738C229.039 16.6474 233.059 20.436 238.018 20.436Z" fill="#3F3D56"/>
<path d="M257.504 61.5054C271.414 61.5054 282.689 47.737 282.689 30.7527C282.689 13.7685 271.414 0 257.504 0C243.594 0 232.319 13.7685 232.319 30.7527C232.319 47.737 243.594 61.5054 257.504 61.5054Z" fill="#3F3D56"/>
<path opacity="0.1" d="M257.504 52.2173C244.887 52.2173 234.435 40.8876 232.6 26.1086C232.409 27.6501 232.313 29.2008 232.313 30.7527C232.313 47.7342 243.591 61.5054 257.504 61.5054C271.417 61.5054 282.689 47.7342 282.689 30.7527C282.689 29.2008 282.594 27.6501 282.403 26.1086C280.573 40.9084 270.122 52.2173 257.504 52.2173Z" fill="black"/>
<path d="M311.171 120.819C310.62 122.897 308.299 124.59 305.72 125.759C300.284 128.226 293.593 128.959 287.094 129.208C285.44 129.303 283.781 129.273 282.133 129.12C278.732 128.741 275.579 127.374 273.611 125.426C273.33 125.214 273.136 124.917 273.06 124.585C273.073 124.386 273.129 124.191 273.224 124.013C273.318 123.834 273.45 123.676 273.611 123.546C277.078 119.982 282.855 117.79 288.654 116.232C293.063 115.032 300.748 111.925 305.56 112.346C310.234 112.725 311.855 118.169 311.171 120.819Z" fill="#3F3D56"/>
<path opacity="0.1" d="M311.171 120.819C310.62 122.897 308.299 124.59 305.72 125.759C300.284 128.226 293.593 128.959 287.094 129.208C285.44 129.303 283.781 129.273 282.133 129.12C278.732 128.741 275.579 127.374 273.611 125.426C273.33 125.214 273.136 124.917 273.06 124.585C273.073 124.386 273.129 124.191 273.224 124.013C273.318 123.834 273.45 123.676 273.611 123.546C277.078 119.982 282.855 117.79 288.654 116.232C293.063 115.032 300.748 111.925 305.56 112.346C310.234 112.725 311.855 118.169 311.171 120.819Z" fill="black"/>
<path d="M242.125 105.162C240.472 108.218 240.173 111.768 241.293 115.032C242.435 118.278 244.574 121.131 247.439 123.229C254.478 128.554 264.135 129.286 273.137 129.219C281.03 129.152 288.912 128.642 296.74 127.691C299.347 127.374 301.982 127 304.397 126.019C307.335 124.819 309.909 122.621 310.962 119.785C312.015 116.949 311.27 113.437 308.757 111.536C306.552 109.863 303.559 109.634 300.753 109.458L284.685 108.549C286.272 107.032 288.384 106.175 290.318 105.079C292.882 103.614 294.585 101.162 296.454 98.9541C299.21 95.6503 302.517 92.7621 305.824 89.8894C306.376 92.7153 308.244 95.0373 310.477 96.9905C312.709 98.9438 315.283 100.513 317.61 102.367C323.232 106.866 327.278 112.975 333.193 117.13C337.262 116.122 341.065 114.332 344.366 111.873L342.067 107.951C341.879 107.541 341.581 107.183 341.202 106.912C340.546 106.538 339.708 106.731 338.953 106.627C336.935 106.341 336.053 104.144 335.26 102.372C333.088 97.4996 328.921 93.7231 325.338 89.64C322.725 86.6299 320.409 83.4009 318.42 79.9934C317.224 77.9623 316.132 75.8377 314.506 74.087C312.88 72.3364 310.614 70.9702 308.145 70.9702C305.94 70.9702 303.956 72.0092 302.082 73.0481C296.372 76.2447 290.879 79.7718 285.633 83.609C282.877 85.6141 280.159 87.7388 276.94 88.9699C275.584 89.4894 274.184 89.8426 272.856 90.4712C270.579 91.5777 268.848 93.4477 266.985 95.1049C260.348 101.022 251.259 104.855 242.125 105.162Z" fill="#605D82"/>
<path d="M275.727 63.0326C275.656 64.8433 275.247 66.6279 274.52 68.3053C274.152 69.1386 273.606 69.8916 272.916 70.5172C272.225 71.1428 271.405 71.6277 270.507 71.9416C269.23 72.2643 267.891 72.3052 266.594 72.0611C265.46 71.9459 264.369 71.5907 263.402 71.0221C261.897 70.0455 261.148 68.3053 260.872 66.6014C260.596 64.8975 260.723 63.1573 260.547 61.4431C260.375 60.0575 260.095 58.6859 259.709 57.3392C259.593 56.8925 259.472 56.4457 259.351 55.999C259.229 55.5522 259.125 55.1055 259.02 54.6588C258.915 54.212 258.832 53.8224 258.755 53.3965C258.678 52.9705 258.634 52.6796 258.595 52.3211C258.56 51.25 258.375 50.188 258.044 49.1628C257.73 48.499 257.336 47.8715 256.87 47.2927C256.672 47.0225 256.479 46.7732 256.319 46.4771C255.806 45.7534 255.567 44.8876 255.641 44.02C255.662 43.8855 255.697 43.7532 255.746 43.6252C255.762 43.5755 255.783 43.5269 255.806 43.4797C256.003 43.4289 256.183 43.3338 256.332 43.2025C256.481 43.0713 256.594 42.9079 256.661 42.7265C256.736 42.335 256.7 41.9317 256.556 41.5577C256.394 41.0353 256.17 40.5318 255.889 40.0564C255.707 39.7447 255.084 39.1785 255.079 38.8201C255.079 38.098 256.567 37.5162 257.173 37.2305C259.025 36.355 261.092 35.9605 263.16 36.0877C264.482 36.1708 265.916 36.5552 266.649 37.6045C267.31 38.5448 267.2 39.7655 267.503 40.8616C267.528 41.0216 267.599 41.1723 267.707 41.298C267.851 41.4213 268.032 41.4994 268.225 41.5213C268.548 41.5827 268.879 41.595 269.206 41.5577C269.294 41.5532 269.381 41.541 269.466 41.5213C269.975 41.4325 270.457 41.2373 270.877 40.9499C271.152 40.8772 271.428 40.8252 271.698 40.7785H271.731C272.833 44.0408 272.971 47.5316 273.87 50.8666C274.316 52.5185 274.972 54.1497 275.044 55.8535C275.044 55.9263 275.044 56.0042 275.044 56.0769C275.044 56.6276 275.011 57.1782 275.044 57.7236C275.054 57.9678 275.083 58.2109 275.132 58.4509C275.232 58.8377 275.353 59.2192 275.496 59.5937C275.535 59.7132 275.573 59.8327 275.606 59.9574C275.633 60.0445 275.656 60.1329 275.672 60.2223C275.834 61.1517 275.852 62.0982 275.727 63.0326Z" fill="#FBBEBE"/>
<path d="M260.359 41.6928C267.495 41.6928 273.28 36.2412 273.28 29.5164C273.28 22.7915 267.495 17.34 260.359 17.34C253.223 17.34 247.439 22.7915 247.439 29.5164C247.439 36.2412 253.223 41.6928 260.359 41.6928Z" fill="#FBBEBE"/>
<path d="M342.398 95.8633C342.021 92.5444 340.769 89.3673 338.754 86.6219L339.763 92.2582C339.345 92.3711 338.9 92.367 338.484 92.2461C338.069 92.1253 337.699 91.893 337.42 91.5777C336.875 90.9372 336.459 90.2084 336.191 89.427C334.723 85.9932 332.803 82.747 330.475 79.7649C322.251 79.1155 314.115 75.9052 306.883 72.1546C299.651 68.404 292.876 63.921 285.732 60.0198C284.494 59.3158 283.204 58.6944 281.874 58.16C279.641 57.3185 277.133 56.8822 275.016 55.89L274.592 55.677C274.112 55.4344 273.658 55.1491 273.236 54.825C273.009 54.6486 272.794 54.4595 272.591 54.2588C271.534 53.1014 270.695 51.7819 270.111 50.3576C268.975 47.9888 268.567 45.1265 267.437 42.7577C267.959 42.3003 268.542 41.9107 269.173 41.5993L269.449 41.4694C269.898 41.2718 270.365 41.1119 270.844 40.9915C271.119 40.9188 271.395 40.8668 271.665 40.8201H271.698C272.979 40.6255 274.291 40.7235 275.524 41.1058C277.321 41.6824 278.831 42.8253 280.352 43.9109C282.75 45.62 285.242 47.2304 287.419 49.1888C288.665 50.316 289.806 51.5524 291.145 52.5757C292.262 53.3882 293.439 54.1243 294.668 54.7783L316.463 67.0118C318.921 68.3884 321.385 69.7702 323.789 71.2352C327.443 73.4533 330.955 75.8584 334.482 78.2636L340.706 82.5129C341.387 82.9293 341.985 83.457 342.47 84.0713C342.896 84.7601 343.161 85.5271 343.247 86.3206C343.764 89.5202 343.473 92.7895 342.398 95.8633Z" fill="#FBBEBE"/>
<path d="M278.936 72.191C278.059 75.874 274.112 78.1025 272.045 81.3389C269.477 85.3544 270.524 90.0244 271.494 94.6269L266.208 98.9178C265.238 99.7022 264.262 100.476 263.22 101.188C261.692 102.156 260.095 103.024 258.441 103.785L253.767 106.05C252.317 106.818 250.78 107.431 249.186 107.879C246.11 108.622 242.847 108.102 239.815 107.245C239.456 107.157 239.112 107.024 238.79 106.85C238.601 106.743 238.436 106.602 238.305 106.435C238.003 105.928 237.894 105.34 237.996 104.767C238.305 99.9463 239.556 95.2243 240.802 90.5387C241.457 87.7247 242.343 84.9632 243.453 82.2791C244.547 79.9815 245.805 77.7566 247.218 75.6195C248.872 72.9858 250.526 70.3313 252.73 68.0716C253.673 67.095 254.726 66.1703 255.288 64.9547C256.065 63.282 255.762 61.3652 255.922 59.547C256.041 58.1783 256.426 56.8419 257.058 55.6042C257.395 54.9382 257.801 54.3048 258.27 53.7134C258.485 54.1809 258.695 54.6484 258.91 55.1107L259.323 56.025C259.505 56.4146 259.681 56.8094 259.874 57.199C260.389 58.3141 260.9 59.431 261.407 60.5496C261.954 61.9586 262.737 63.2758 263.727 64.4508C264.78 65.5729 266.329 66.3885 267.906 66.2274C268.646 66.1111 269.35 65.8409 269.965 65.4366C270.581 65.0323 271.094 64.5039 271.467 63.8898C272.205 62.6597 272.739 61.3299 273.049 59.947C273.483 58.2643 273.543 56.5151 273.225 54.8095C272.674 51.5212 271.213 48.1654 270.138 45.1109C269.7 44.0932 269.446 43.0132 269.388 41.9162C269.388 41.7923 269.401 41.6687 269.427 41.5473V41.4538C269.876 41.2563 270.343 41.0963 270.822 40.9759C271.097 40.9032 271.373 40.8513 271.643 40.8045C272.591 45.6529 273.541 50.4909 274.493 55.3185C274.493 55.4328 274.542 55.5471 274.564 55.6614C274.697 56.3575 274.834 57.0484 274.989 57.7393C275.143 58.4302 275.275 58.9912 275.441 59.6094C275.496 59.8172 275.557 60.0301 275.617 60.2379C275.788 60.8093 275.976 61.3704 276.168 61.9314C277.513 65.3236 279.757 68.7053 278.936 72.191Z" fill="#6C63FF"/>
<path d="M331.379 123.967C331.331 124.682 331.477 125.397 331.804 126.045C332.608 127.437 334.56 127.754 336.213 127.883C346.022 128.645 355.891 128.363 365.632 127.042C366.161 127.006 366.674 126.854 367.131 126.6C368.515 125.686 367.683 123.458 366.15 122.741C364.618 122.024 362.843 122.221 361.189 121.894C359.54 121.501 357.969 120.859 356.537 119.993C353.174 118.171 349.867 116.266 346.615 114.279C344.669 113.099 342.37 111.842 340.182 112.543C334.234 114.434 331.335 117.936 331.379 123.967Z" fill="#2F2E41"/>
<path d="M259.07 54.4147L259.02 54.6692L258.937 55.0952C258.667 56.4042 258.331 57.6925 257.951 59.0068C256.898 62.586 255.492 66.1132 254.092 69.5832L242.842 97.5308C241.893 99.8788 240.951 102.206 239.876 104.523C239.518 105.287 239.148 106.081 238.773 106.84C237.456 109.629 236.188 112.512 235.769 115.489C235.494 117.458 235.218 119.468 235.632 121.416C236.045 123.364 237.285 125.271 239.275 125.987C240.234 126.341 241.607 126.813 241.342 127.754C241.204 128.273 240.582 128.522 240.019 128.606C239.282 128.718 238.528 128.675 237.81 128.48C237.092 128.285 236.429 127.943 235.869 127.478C234.821 126.606 234.011 125.239 232.616 125.094C231.652 124.995 230.764 125.541 229.86 125.92C226.25 127.478 222.049 126.387 218.257 125.281C218.555 123.837 220.098 122.881 221.625 122.595C223.152 122.31 224.739 122.507 226.305 122.471C226.806 122.495 227.302 122.374 227.727 122.123C228.111 121.799 228.385 121.376 228.515 120.907C229.52 118.098 230.267 115.213 230.748 112.284C231.255 109.219 231.464 106.112 232.181 103.089C232.732 100.731 233.603 98.4451 234.342 96.1282C235.776 91.36 236.951 86.5261 237.864 81.6454C238.327 79.6195 238.658 77.569 238.856 75.5052C238.983 73.791 238.922 72.0663 239.099 70.3624C239.391 68.1423 239.882 65.9493 240.565 63.8067C241.237 61.4639 241.904 59.1315 242.577 56.7938C243.569 53.3342 244.633 49.7446 247.147 47.0589C248.019 46.1123 249.089 45.3449 250.289 44.8043C251.49 44.2636 252.795 43.9613 254.125 43.9161C254.624 43.914 255.121 43.9645 255.608 44.0668L255.85 44.1239C256.383 44.2532 256.893 44.4525 257.366 44.7161C258.143 44.2486 258.535 44.4148 259.053 45.1265C259.503 45.8865 259.715 46.751 259.665 47.62C259.705 49.8978 259.505 52.1738 259.07 54.4147Z" fill="#FBBEBE"/>
<path d="M259.918 57.173L259.885 57.2042L259.709 57.3704L257.95 59.0275L257.085 55.6094L254.125 43.9005C254.624 43.8984 255.121 43.9489 255.608 44.0512C255.629 43.9167 255.664 43.7844 255.713 43.6564L255.85 44.1083L256.854 47.3238L258.755 53.4276L259.069 54.4354L259.918 57.173Z" fill="#6C63FF"/>
<path d="M269.791 11.5582H254.985C251.332 11.5582 248.37 14.3491 248.37 17.7919V21.8386C248.37 25.2813 251.332 28.0722 254.985 28.0722H269.791C273.444 28.0722 276.405 25.2813 276.405 21.8386V17.7919C276.405 14.3491 273.444 11.5582 269.791 11.5582Z" fill="#3F3D56"/>
<path d="M278.043 20.436C283.002 20.436 287.022 16.6474 287.022 11.9738C287.022 7.30031 283.002 3.51166 278.043 3.51166C273.083 3.51166 269.063 7.30031 269.063 11.9738C269.063 16.6474 273.083 20.436 278.043 20.436Z" fill="#3F3D56"/>
<path opacity="0.1" d="M277.828 3.50643H277.497C279.81 3.60002 281.995 4.53166 283.596 6.10692C285.197 7.68219 286.091 9.77937 286.091 11.9608C286.091 14.1423 285.197 16.2395 283.596 17.8147C281.995 19.39 279.81 20.3216 277.497 20.4152H277.828C280.209 20.4152 282.493 19.5237 284.177 17.9367C285.861 16.3497 286.807 14.1973 286.807 11.953C286.807 9.70872 285.861 7.55633 284.177 5.96936C282.493 4.38239 280.209 3.49084 277.828 3.49084V3.50643Z" fill="black"/>
<path opacity="0.1" d="M238.018 3.50643H238.349C236.036 3.60002 233.851 4.53166 232.25 6.10692C230.649 7.68219 229.755 9.77937 229.755 11.9608C229.755 14.1423 230.649 16.2395 232.25 17.8147C233.851 19.39 236.036 20.3216 238.349 20.4152H238.018C236.839 20.4152 235.671 20.1963 234.582 19.7711C233.493 19.3458 232.503 18.7225 231.669 17.9367C230.835 17.1509 230.174 16.2181 229.722 15.1914C229.271 14.1647 229.039 13.0643 229.039 11.953C229.039 10.8418 229.271 9.74138 229.722 8.7147C230.174 7.68802 230.835 6.75515 231.669 5.96936C232.503 5.18357 233.493 4.56026 234.582 4.13499C235.671 3.70973 236.839 3.49084 238.018 3.49084V3.50643Z" fill="black"/>
<path opacity="0.1" d="M276.681 26.4151H253.927C253.23 26.4151 252.562 26.1548 252.069 25.6912C251.576 25.2276 251.299 24.5987 251.297 23.9424V25.5892C251.299 26.2459 251.576 26.8754 252.069 27.3398C252.562 27.8042 253.23 28.0657 253.927 28.067H276.703C277.4 28.0657 278.068 27.8042 278.561 27.3398C279.054 26.8754 279.331 26.2459 279.332 25.5892V23.9424C279.331 24.269 279.261 24.592 279.127 24.8931C278.993 25.1942 278.797 25.4674 278.551 25.6971C278.305 25.9267 278.013 26.1084 277.692 26.2316C277.371 26.3548 277.028 26.4172 276.681 26.4151Z" fill="black"/>
<path d="M353.874 113.037C353.874 113.037 355.297 113.271 355.528 112.185C355.644 111.666 355.253 108.331 354.806 104.996C354.591 103.354 354.36 101.718 354.172 100.409C353.946 98.8035 353.781 97.697 353.781 97.697L353.522 96.8866L351.989 92.0347L350.545 87.4634L349.481 85.666L341.825 89.1776L337.062 96.9334L338.539 97.8113L338.798 97.9671L341.516 100.648L349.134 108.18L352.563 111.572L352.965 111.967L353.874 113.037Z" fill="#FFE98A"/>
<path d="M347.855 82.5804C347.855 82.5804 339.465 86.2894 337.448 90.3205C337.448 90.3205 335.563 93.7127 335.326 95.5152C335.326 95.5152 334.775 97.162 338.253 97.5671C338.253 97.5671 339.835 91.5153 344.581 88.8868L349.332 86.2634L347.855 82.5804Z" fill="#E7C4C3"/>
<path d="M350.041 91.8914C350.45 90.4526 349.734 89.0214 348.44 88.6947C347.147 88.368 345.767 89.2695 345.357 90.7082C344.948 92.147 345.665 93.5782 346.958 93.9049C348.252 94.2316 349.632 93.3301 350.041 91.8914Z" fill="#FF7F8E"/>
<path d="M349.131 101.296C349.536 99.8631 348.82 98.439 347.532 98.1154C346.243 97.7919 344.87 98.6915 344.465 100.125C344.06 101.558 344.776 102.982 346.064 103.306C347.353 103.629 348.726 102.73 349.131 101.296Z" fill="#FF7F8E"/>
<path d="M341.516 100.648C341.956 100.479 342.346 100.215 342.656 99.8763C342.966 99.5375 343.185 99.1342 343.296 98.6996C343.704 97.2658 342.988 95.8373 341.698 95.5152C340.408 95.1932 339.035 96.0918 338.633 97.5256C338.601 97.6225 338.577 97.7214 338.561 97.8217L338.82 97.9775L341.516 100.648Z" fill="#FF7F8E"/>
<path d="M351.763 97.1827C352.065 97.2548 352.38 97.2656 352.687 97.2146C352.994 97.1635 353.286 97.0518 353.544 96.8867L352.011 92.0348C351.555 92.1944 351.147 92.4576 350.824 92.8009C350.501 93.1443 350.273 93.5573 350.159 94.0036C349.757 95.4529 350.473 96.8607 351.763 97.1827Z" fill="#FF7F8E"/>
<path d="M352.651 105.577C353.036 105.663 353.439 105.655 353.82 105.553C354.201 105.451 354.548 105.259 354.828 104.996C354.613 103.354 354.382 101.718 354.194 100.409H354.123C352.833 100.081 351.46 100.985 351.052 102.419C350.644 103.853 351.366 105.255 352.651 105.577Z" fill="#FF7F8E"/>
<path d="M352.563 111.556C352.721 111.305 352.841 111.034 352.921 110.751C353.329 109.318 352.612 107.894 351.322 107.572C350.932 107.483 350.523 107.491 350.137 107.594C349.751 107.698 349.399 107.895 349.117 108.164L352.563 111.556Z" fill="#FF7F8E"/>
<path d="M348.776 89.8322L349.658 90.0556C349.311 90.6567 349.106 91.3211 349.057 92.0036C349.054 92.0486 349.054 92.0937 349.057 92.1387C349.173 92.9958 348.175 91.9153 348.175 91.9153C348.175 91.9153 348.346 90.1543 348.776 89.8322Z" fill="#94CC79"/>
<path d="M344.757 95.1932L345.645 95.4165C345.295 96.0146 345.09 96.678 345.044 97.3594C345.041 97.4044 345.041 97.4494 345.044 97.4944C345.16 98.3516 344.162 97.2711 344.162 97.2711C344.162 97.2711 344.327 95.5101 344.757 95.1932Z" fill="#94CC79"/>
<path d="M347.502 96.9645L348.384 97.1827C348.038 97.7838 347.833 98.4482 347.783 99.1307C347.781 99.1757 347.781 99.2208 347.783 99.2658C347.905 100.123 346.901 99.0424 346.901 99.0424C346.901 99.0424 347.083 97.2814 347.502 96.9645Z" fill="#94CC79"/>
<path d="M351.03 101.437L351.918 101.655C351.568 102.255 351.363 102.92 351.317 103.603C351.314 103.648 351.314 103.693 351.317 103.738C351.433 104.596 350.435 103.515 350.435 103.515C350.435 103.515 350.606 101.754 351.03 101.437Z" fill="#94CC79"/>
<path d="M353.23 108.798L354.111 109.021C353.766 109.621 353.561 110.284 353.511 110.964C353.508 111.009 353.508 111.054 353.511 111.099C353.632 111.956 352.629 110.881 352.629 110.881C352.629 110.881 352.8 109.115 353.23 108.798Z" fill="#94CC79"/>
<path d="M348.445 103.65L349.327 103.874C348.978 104.481 348.777 105.153 348.737 105.842C348.734 105.887 348.734 105.932 348.737 105.977C348.853 106.835 347.855 105.759 347.855 105.759C347.855 105.759 348.02 103.967 348.445 103.65Z" fill="#94CC79"/>
<path d="M350.584 83.2661C350.584 83.2661 349.321 80.57 347.828 82.5804C347.953 84.2126 348.523 85.7869 349.481 87.1517C349.481 87.1517 354.051 98.8658 353.671 100.658C353.671 100.658 355.473 111.972 355.026 112.606C355.026 112.606 355.523 113.406 355.875 110.398C356.228 107.39 354.679 98.5541 354.679 98.5541L352.414 89.3699L350.898 86.2531L350.584 83.2661Z" fill="#E7C4C3"/>
<path opacity="0.2" d="M350.584 83.2661C350.584 83.2661 349.321 80.57 347.828 82.5804C347.953 84.2126 348.523 85.7869 349.481 87.1517C349.481 87.1517 354.051 98.8658 353.671 100.658C353.671 100.658 355.473 111.972 355.026 112.606C355.026 112.606 355.523 113.406 355.875 110.398C356.228 107.39 354.679 98.5541 354.679 98.5541L352.414 89.3699L350.898 86.2531L350.584 83.2661Z" fill="white"/>
<path d="M335.425 87.7336C335.425 87.7336 337.69 93.8841 339.763 92.2478L338.109 84.2115L335.425 87.7336Z" fill="#FBBEBE"/>
<path d="M180.476 112.995C180.476 112.995 200.458 144.72 205.127 148.958C205.127 148.958 225.092 168.491 214.944 167.14C214.2 167.041 199.587 155.4 198.733 153.488C197.878 151.577 170.251 117.754 170.251 117.754L174.192 114.336L180.476 112.995Z" fill="#A0616A"/>
<path opacity="0.1" d="M180.476 112.995C180.476 112.995 200.458 144.72 205.127 148.958C205.127 148.958 225.092 168.491 214.944 167.14C214.2 167.041 199.587 155.4 198.733 153.488C197.878 151.577 170.251 117.754 170.251 117.754L174.192 114.336L180.476 112.995Z" fill="black"/>
<path d="M198.749 216.604C198.749 216.604 192.355 224.136 195.023 227.149C197.691 230.162 210.981 235.923 215.269 235.684C219.8 235.435 234.987 236.204 235.521 229.658C235.521 229.658 236.585 226.645 222.733 226.142C208.881 225.638 213.136 212.079 213.136 212.079L198.749 216.604Z" fill="#2F2E41"/>
<path d="M122.548 152.823C122.548 152.823 116.154 173.41 135.336 176.927L156.117 175.924C156.117 175.924 185.426 170.397 193.424 174.418C193.424 174.418 196.621 174.937 195.552 178.937C194.483 182.937 197.151 210.074 197.151 210.074V219.113C197.151 219.113 215.269 219.113 217.402 217.103C217.402 217.103 215.804 209.067 217.402 202.558C219.001 196.049 214.74 175.436 214.74 175.436L214.316 163.067C214.283 161.535 213.818 160.038 212.969 158.73C212.119 157.423 210.915 156.352 209.481 155.628C208.474 155.126 207.353 154.857 206.213 154.844C206.213 154.844 169.975 149.322 157.187 150.325C144.398 151.327 122.548 152.823 122.548 152.823Z" fill="#605D82"/>
<path d="M158.251 87.0323C158.251 87.0323 167.842 97.5775 168.906 101.094C169.97 104.611 181.716 113.634 181.716 113.634C181.716 113.634 173.189 119.66 174.787 122.673C176.386 125.686 163.598 112.632 163.598 112.632L148.643 92.0556L158.251 87.0323Z" fill="#6C63FF"/>
<path opacity="0.1" d="M158.251 87.0323C158.251 87.0323 167.842 97.5775 168.906 101.094C169.97 104.611 181.716 113.634 181.716 113.634C181.716 113.634 173.189 119.66 174.787 122.673C176.386 125.686 163.598 112.632 163.598 112.632L148.643 92.0556L158.251 87.0323Z" fill="black"/>
<path d="M164.628 74.9805C164.628 74.9805 159.833 89.5257 159.833 95.0685C159.833 100.611 139.581 93.562 140.116 90.5491C140.65 87.5361 151.84 76.487 152.375 71.9676C152.909 67.4482 164.628 74.9805 164.628 74.9805Z" fill="#A0616A"/>
<path opacity="0.1" d="M148.643 85.0219C148.643 85.0219 129.989 80.5025 127.327 106.118C124.665 131.733 129.455 134.741 121.462 150.309C113.469 165.878 175.818 152.319 175.818 152.319C175.818 152.319 172.621 148.803 162.495 150.309L157.7 136.751C157.7 136.751 156.101 130.725 165.163 130.725C174.225 130.725 169.959 113.146 169.959 113.146C169.959 113.146 165.163 98.0815 162.495 96.575C159.827 95.0685 155.054 86.0297 148.643 85.0219Z" fill="black"/>
<path d="M148.643 84.0245C148.643 84.0245 129.989 79.5051 127.327 105.115C124.665 130.725 129.455 133.743 121.462 149.312C113.469 164.88 175.818 151.322 175.818 151.322C175.818 151.322 172.621 147.805 162.495 149.312L157.7 135.753C157.7 135.753 156.117 129.738 165.18 129.738C174.242 129.738 169.975 112.159 169.975 112.159C169.975 112.159 165.18 97.0944 162.512 95.5879C159.844 94.0815 155.054 85.0219 148.643 84.0245Z" fill="#6C63FF"/>
<path d="M159.849 84.0194C169.561 84.0194 177.433 76.6002 177.433 67.4482C177.433 58.2962 169.561 50.8771 159.849 50.8771C150.138 50.8771 142.265 58.2962 142.265 67.4482C142.265 76.6002 150.138 84.0194 159.849 84.0194Z" fill="#A0616A"/>
<path d="M156.454 152.299L200.645 177.192L241.761 141.088L192.746 125L157.474 147.629L156.454 152.299Z" fill="#DADAE5"/>
<path d="M208.605 82.6167L194.852 121.162L240.449 133.52L259.913 81.396L208.605 82.6167Z" fill="#DADAE5"/>
<path opacity="0.03" d="M204.934 79.7701L208.666 82.9856L259.974 81.7648L261.153 78.6064L204.934 79.7701Z" fill="black"/>
<path opacity="0.03" d="M191.39 118.943L204.934 79.77L208.666 82.9855L195.26 120.564L191.39 118.943Z" fill="black"/>
<path d="M204.873 79.4012L208.605 82.6168L259.913 81.396L261.093 78.2376L204.873 79.4012Z" fill="#EFF0F4"/>
<path d="M191.33 118.58L204.873 79.4012L208.605 82.6168L195.199 120.195L191.33 118.58Z" fill="#EFF0F4"/>
<path opacity="0.03" d="M204.873 79.4012L210.578 84.4297L261.892 83.2089L261.093 78.2376L204.873 79.4012Z" fill="black"/>
<path opacity="0.03" d="M191.33 118.58L204.873 79.4012L210.578 84.4297L197.173 122.008L191.33 118.58Z" fill="black"/>
<path opacity="0.03" d="M191.418 119.13L192.664 126.585L241.982 142.72L240.543 134.07L191.418 119.13Z" fill="black"/>
<path opacity="0.03" d="M154.96 143.629L191.418 119.13L193.011 126.58L157.198 151.68L154.96 143.629Z" fill="black"/>
<path d="M191.33 118.58L192.399 125.006L241.717 141.14L240.449 133.52L191.33 118.58Z" fill="#EFF0F4"/>
<path d="M154.866 143.073L191.33 118.58L192.746 125L156.933 150.101L154.866 143.073Z" fill="#EFF0F4"/>
<path opacity="0.03" d="M191.33 118.58L192.399 125.006L241.717 141.14L240.449 133.52L191.33 118.58Z" fill="black"/>
<path opacity="0.03" d="M154.866 143.073L191.33 118.58L192.746 125L156.933 150.101L154.866 143.073Z" fill="black"/>
<path d="M154.866 143.073L156.514 152.335L200.585 177.15L199.499 167.618L154.866 143.073Z" fill="#CCCAD6"/>
<path d="M174.947 141.608C174.947 141.608 174.181 142.985 175.35 143.618C175.901 143.92 179.886 144.657 183.888 145.364C185.851 145.707 187.818 146.039 189.4 146.299C191.33 146.621 192.664 146.818 192.664 146.818H193.678L199.807 146.927L205.573 147.031L208.015 146.559L206.61 137.53L199.311 129.972L197.784 131.187L197.525 131.395L193.513 133.234L182.19 138.429L177.097 140.766L176.502 141.042L174.947 141.608Z" fill="#FFE98A"/>
<path d="M212.138 145.966C212.138 145.966 210.766 136.096 206.808 132.637C206.808 132.637 203.556 129.52 201.555 128.668C201.555 128.668 199.852 127.53 198.176 130.959C198.176 130.959 204.609 134.668 205.998 140.439L207.381 146.21L212.138 145.966Z" fill="#E7C4C3"/>
<path d="M204.402 142.443C205.222 141.234 204.659 139.516 203.145 138.605C201.631 137.693 199.74 137.935 198.921 139.144C198.101 140.352 198.664 142.071 200.178 142.982C201.691 143.894 203.583 143.652 204.402 142.443Z" fill="#FF7F8E"/>
<path d="M194.347 140.3C195.167 139.091 194.604 137.372 193.09 136.461C191.576 135.55 189.685 135.791 188.866 137C188.046 138.209 188.609 139.928 190.123 140.839C191.636 141.75 193.528 141.509 194.347 140.3Z" fill="#FF7F8E"/>
<path d="M193.512 133.239C193.555 133.75 193.728 134.244 194.016 134.679C194.303 135.114 194.698 135.477 195.166 135.738C196.676 136.647 198.567 136.408 199.383 135.218C200.199 134.029 199.642 132.294 198.126 131.385C198.023 131.323 197.916 131.265 197.806 131.213L197.547 131.421L193.512 133.239Z" fill="#FF7F8E"/>
<path d="M193.953 144.922C193.766 145.207 193.644 145.526 193.595 145.858C193.547 146.19 193.573 146.528 193.672 146.849L199.802 146.958C199.778 146.43 199.615 145.915 199.326 145.462C199.037 145.008 198.632 144.63 198.148 144.361C196.66 143.473 194.769 143.717 193.953 144.922Z" fill="#FF7F8E"/>
<path d="M183.965 142.933C183.732 143.298 183.603 143.713 183.589 144.139C183.576 144.564 183.679 144.986 183.888 145.364C185.851 145.707 187.818 146.039 189.4 146.299L189.45 146.231C190.266 145.026 189.704 143.307 188.193 142.398C186.683 141.488 184.787 141.727 183.965 142.933Z" fill="#FF7F8E"/>
<path d="M177.097 140.777C177.333 141.025 177.604 141.242 177.902 141.421C179.412 142.33 181.303 142.091 182.119 140.901C182.353 140.535 182.483 140.117 182.496 139.69C182.508 139.262 182.403 138.838 182.19 138.46L177.097 140.777Z" fill="#FF7F8E"/>
<path d="M203.457 144.403L202.905 145.229C202.334 144.667 201.64 144.229 200.871 143.946L200.711 143.909C199.681 143.733 201.263 143.083 201.263 143.083C201.263 143.083 203.242 143.857 203.457 144.403Z" fill="#94CC79"/>
<path d="M198.666 138.439L198.115 139.27C197.545 138.706 196.851 138.267 196.081 137.982L195.921 137.946C194.896 137.774 196.473 137.12 196.473 137.12C196.473 137.12 198.451 137.894 198.666 138.439Z" fill="#94CC79"/>
<path d="M195.679 140.647L195.128 141.473C194.557 140.911 193.862 140.473 193.094 140.19L192.934 140.153C191.903 139.977 193.485 139.327 193.485 139.327C193.485 139.327 195.458 140.091 195.679 140.647Z" fill="#94CC79"/>
<path d="M189.301 142.725L188.75 143.556C188.18 142.992 187.485 142.552 186.716 142.268L186.556 142.231C185.525 142.06 187.107 141.405 187.107 141.405C187.107 141.405 189.081 142.159 189.301 142.725Z" fill="#94CC79"/>
<path d="M180.063 142.413L179.511 143.244C178.939 142.681 178.243 142.241 177.472 141.956L177.312 141.92C176.287 141.748 177.863 141.094 177.863 141.094C177.863 141.094 179.837 141.862 180.063 142.413Z" fill="#94CC79"/>
<path d="M187.642 139.296L187.091 140.122C186.521 139.558 185.826 139.119 185.057 138.834L184.897 138.798C183.866 138.626 185.448 137.972 185.448 137.972C185.448 137.972 187.422 138.746 187.642 139.296Z" fill="#94CC79"/>
<path d="M210.38 148.527C210.38 148.527 213.924 148.164 212.116 145.966C210.196 145.525 208.187 145.557 206.284 146.06C206.284 146.06 191.197 146.694 189.241 145.675C189.241 145.675 175.57 143.598 175.019 142.943C175.019 142.943 173.916 143.172 177.268 144.574C180.619 145.977 191.341 147.442 191.341 147.442L202.712 148.294L206.802 147.816L210.38 148.527Z" fill="#E7C4C3"/>
<path opacity="0.2" d="M210.38 148.527C210.38 148.527 213.924 148.164 212.116 145.966C210.196 145.525 208.187 145.557 206.284 146.06C206.284 146.06 191.197 146.694 189.241 145.675C189.241 145.675 175.57 143.598 175.019 142.943C175.019 142.943 173.916 143.172 177.268 144.574C180.619 145.977 191.341 147.442 191.341 147.442L202.712 148.294L206.802 147.816L210.38 148.527Z" fill="white"/>
<path d="M199.631 143.431C199.466 143.917 199.426 144.433 199.515 144.937C199.604 145.44 199.82 145.916 200.144 146.325C201.18 147.701 203.027 148.148 204.272 147.322C205.518 146.496 205.678 144.725 204.636 143.322C204.565 143.229 204.487 143.135 204.41 143.047L204.079 143.151L199.631 143.431Z" fill="#FF7F8E"/>
<path d="M199.499 167.618L240.449 133.52L241.706 141.047L200.585 177.15L199.499 167.618Z" fill="#CCCAD6"/>
<path d="M245.763 135.463L240.449 133.52L261.093 78.2376L265.028 80.8557L245.763 135.463Z" fill="#CCCAD6"/>
<g opacity="0.1">
<path d="M212.53 216.038C212.571 214.701 212.776 213.372 213.142 212.079L212.871 212.168C212.607 213.442 212.492 214.74 212.53 216.038Z" fill="white"/>
<path d="M215.269 234.671C210.981 234.91 197.685 229.144 195.023 226.131C194.671 225.725 194.457 225.23 194.406 224.708C194.327 225.131 194.341 225.566 194.447 225.984C194.553 226.402 194.749 226.795 195.023 227.139C197.685 230.152 210.981 235.913 215.269 235.674C219.8 235.425 234.987 236.193 235.521 229.648C235.558 229.472 235.533 229.29 235.45 229.129C234.226 235.144 219.685 234.438 215.269 234.671Z" fill="white"/>
</g>
<path d="M230.841 112.793C230.841 112.793 231.789 111.754 230.93 111.006C230.516 110.642 227.275 109.25 224.012 107.889C222.408 107.224 220.793 106.57 219.508 106.05L216.835 104.975L215.969 104.767L210.76 103.515L205.86 102.336L203.655 102.279L202.916 110.273L207.541 118.107L209.096 117.359L209.366 117.229L213.186 116.419L223.979 114.154L228.824 113.115L229.375 112.995L230.841 112.793Z" fill="#FFE98A"/>
<path d="M200.017 102.035C200.017 102.035 199.085 110.72 201.726 114.424C201.726 114.424 203.842 117.686 205.364 118.808C205.364 118.808 206.577 120.097 208.743 117.489C208.743 117.489 204.035 113.105 204.085 107.915L204.129 102.72L200.017 102.035Z" fill="#E7C4C3"/>
<path d="M209.846 110.402C210.802 109.526 210.688 107.954 209.591 106.89C208.494 105.827 206.829 105.675 205.873 106.551C204.917 107.427 205.031 108.999 206.128 110.062C207.225 111.126 208.89 111.278 209.846 110.402Z" fill="#FF7F8E"/>
<path d="M217.977 114.13C218.933 113.254 218.819 111.682 217.722 110.619C216.625 109.555 214.96 109.403 214.004 110.279C213.048 111.155 213.162 112.727 214.26 113.791C215.357 114.854 217.021 115.006 217.977 114.13Z" fill="#FF7F8E"/>
<path d="M213.208 116.424C213.281 115.982 213.241 115.53 213.092 115.105C212.942 114.68 212.687 114.296 212.348 113.982C211.245 112.943 209.592 112.767 208.627 113.645C207.662 114.523 207.789 116.091 208.886 117.156C208.959 117.23 209.037 117.299 209.118 117.364L209.388 117.234L213.208 116.424Z" fill="#FF7F8E"/>
<path d="M215.341 106.362C215.562 106.154 215.734 105.905 215.845 105.63C215.956 105.355 216.004 105.061 215.986 104.767L210.777 103.515C210.687 103.966 210.717 104.432 210.864 104.869C211.011 105.307 211.271 105.704 211.62 106.024C212.701 107.094 214.365 107.245 215.341 106.362Z" fill="#FF7F8E"/>
<path d="M223.422 109.957C223.701 109.687 223.902 109.354 224.005 108.99C224.108 108.626 224.111 108.244 224.012 107.879C222.408 107.214 220.793 106.559 219.508 106.04L219.448 106.086C218.494 106.964 218.61 108.538 219.707 109.603C220.804 110.668 222.468 110.834 223.422 109.957Z" fill="#FF7F8E"/>
<path d="M228.824 113.115C228.678 112.857 228.492 112.62 228.273 112.414C227.17 111.349 225.517 111.198 224.557 112.076C224.277 112.345 224.076 112.678 223.973 113.042C223.871 113.406 223.871 113.79 223.973 114.154L228.824 113.115Z" fill="#FF7F8E"/>
<path d="M207.073 105.011L207.729 104.414C208.098 105.001 208.598 105.506 209.195 105.894L209.322 105.957C210.165 106.299 208.666 106.554 208.666 106.554C208.666 106.554 207.166 105.52 207.073 105.011Z" fill="#94CC79"/>
<path d="M209.917 111.037L210.567 110.434C210.936 111.024 211.437 111.531 212.034 111.92L212.16 111.977C213.004 112.325 211.505 112.58 211.505 112.58C211.505 112.58 209.983 111.515 209.917 111.037Z" fill="#94CC79"/>
<path d="M212.932 109.702L213.588 109.099C213.957 109.689 214.457 110.196 215.054 110.585L215.181 110.642C216.024 110.99 214.525 111.245 214.525 111.245C214.525 111.245 213.004 110.211 212.932 109.702Z" fill="#94CC79"/>
<path d="M218.819 109.141L219.475 108.538C219.843 109.127 220.342 109.633 220.936 110.024L221.068 110.086C221.906 110.429 220.412 110.684 220.412 110.684C220.412 110.684 218.891 109.65 218.819 109.141Z" fill="#94CC79"/>
<path d="M226.652 111.146L227.308 110.544C227.674 111.133 228.173 111.641 228.769 112.029L228.901 112.086C229.739 112.434 228.245 112.689 228.245 112.689C228.245 112.689 226.724 111.65 226.652 111.146Z" fill="#94CC79"/>
<path d="M219.508 112.367L220.164 111.769C220.534 112.357 221.034 112.862 221.63 113.25C221.67 113.276 221.712 113.297 221.757 113.312C222.601 113.655 221.101 113.915 221.101 113.915C221.101 113.915 219.58 112.876 219.508 112.367Z" fill="#94CC79"/>
<path d="M202.045 100.175C202.045 100.175 198.942 99.8165 200.017 102.035C201.562 102.778 203.283 103.136 205.017 103.074C205.017 103.074 218.031 105.39 219.486 106.627C219.486 106.627 230.715 110.98 231.062 111.655C231.062 111.655 232.049 111.655 229.491 109.832C226.933 108.009 218.097 104.71 218.097 104.71L208.572 101.827L204.978 101.458L202.045 100.175Z" fill="#E7C4C3"/>
<path opacity="0.2" d="M202.045 100.175C202.045 100.175 198.942 99.8165 200.017 102.035C201.562 102.778 203.283 103.136 205.017 103.074C205.017 103.074 218.031 105.39 219.486 106.627C219.486 106.627 230.715 110.98 231.062 111.655C231.062 111.655 232.049 111.655 229.491 109.832C226.933 108.009 218.097 104.71 218.097 104.71L208.572 101.827L204.978 101.458L202.045 100.175Z" fill="white"/>
<path d="M186.176 112.273C187.759 111.49 189.192 110.463 190.415 109.234C190.966 108.621 191.429 107.931 191.997 107.328C193.428 105.887 195.288 104.887 197.333 104.461C199.361 104.041 201.435 103.851 203.512 103.894C204.901 103.811 206.295 103.969 207.624 104.362C208.288 104.567 208.887 104.927 209.363 105.41C209.84 105.892 210.178 106.481 210.347 107.12C210.65 108.679 209.57 110.19 208.274 111.193C207.068 112.12 205.649 112.77 204.129 113.089C202.891 113.291 201.641 113.428 200.386 113.499C193.011 114.227 186.429 118.008 179.991 121.452C174.313 124.481 171.094 124.341 165.202 126.969C164.97 125.307 162.302 126.595 162.341 124.917C162.374 123.665 162.44 121.754 163.697 121.016C165.158 120.159 167.555 119.977 169.209 119.458C173.008 118.284 176.719 116.869 180.316 115.224C182.304 114.306 184.258 113.323 186.176 112.273Z" fill="#A0616A"/>
<path opacity="0.1" d="M137.47 107.624L165.731 131.728C165.731 131.728 171.061 121.686 172.66 121.686C174.258 121.686 153.477 92.0763 153.477 92.0763C153.477 92.0763 148.147 86.0505 144.95 89.0634C141.753 92.0763 132.139 90.0452 137.47 107.624Z" fill="black"/>
<path d="M136.935 106.622L165.18 130.725C165.18 130.725 170.51 120.678 172.108 120.678C173.707 120.678 152.92 91.0685 152.92 91.0685C152.92 91.0685 147.59 85.0375 144.393 88.0504C141.196 91.0634 131.605 89.0426 136.935 106.622Z" fill="#6C63FF"/>
<path d="M183.436 64.134C184.053 63.4875 184.554 62.7505 184.919 61.9522C187.355 56.7575 183.491 50.2329 176.893 48.4459C173.586 47.5368 169.882 47.7187 166.58 46.7524C163.923 45.9784 161.685 44.5135 159.248 43.3707C154.67 41.2448 149.604 40.2204 144.503 40.3889C139.515 40.5551 134.091 42.2071 132.046 45.8382C129.058 51.1264 134.554 57.786 131.224 62.934C128.777 66.7157 122.84 67.8326 117.918 69.4741C112.822 71.1351 108.182 73.8448 104.336 77.4065C100.477 81.0428 97.7209 86.0297 99.6612 90.5387C100.791 93.1828 103.343 95.2503 105.372 97.5308C108.756 101.273 110.736 105.962 111.004 110.873C111.272 115.783 109.814 120.639 106.855 124.689C105.907 125.972 104.799 127.224 104.407 128.678C103.47 132.148 107.252 135.639 111.623 136.315C115.994 136.99 120.531 135.452 123.932 133.182C127.072 131.142 129.599 128.372 131.268 125.141C135.309 117.068 132.47 107.998 132.068 99.3074C132.018 98.2944 132.068 97.1931 132.823 96.3983C133.991 95.2088 136.196 95.2399 138.081 95.0841C142.96 94.6789 147.452 92.1023 149.519 88.5491C153.472 81.7129 148.869 72.1598 155.776 67.017C164.469 60.5444 176.981 70.778 183.436 64.134Z" fill="#3F3D56"/>
<path opacity="0.1" d="M176.893 48.4251H176.838C179.418 51.2406 180.388 55.0432 178.855 58.3262C178.49 59.1246 177.989 59.8615 177.373 60.508C170.918 67.1521 158.405 56.9185 149.712 63.3911C142.805 68.5339 147.408 78.0869 143.456 84.9232C141.405 88.4764 136.896 91.0529 132.018 91.4581C130.133 91.614 127.928 91.5828 126.759 92.7724C125.982 93.5672 125.955 94.6685 126.004 95.6814C126.407 104.372 129.245 113.442 125.205 121.515C123.535 124.746 121.008 127.516 117.868 129.556C114.467 131.816 109.936 133.374 105.559 132.699L105.256 132.637C106.004 133.621 106.951 134.455 108.045 135.09C109.138 135.725 110.354 136.148 111.623 136.335C115.999 137.005 120.503 135.447 123.932 133.182C127.072 131.142 129.599 128.372 131.268 125.141C135.309 117.068 132.47 107.998 132.068 99.3074C132.018 98.2944 132.068 97.1931 132.823 96.3983C133.991 95.2087 136.196 95.2399 138.081 95.084C142.96 94.6789 147.452 92.1023 149.519 88.5491C153.472 81.7128 148.869 72.1598 155.776 67.017C164.469 60.5444 176.981 70.778 183.436 64.1339C184.053 63.4874 184.554 62.7505 184.919 61.9522C187.355 56.7419 183.491 50.2588 176.893 48.4251Z" fill="black"/>
</svg>
